1	-0.076562	-0.076562	0.000000
2	0.076562	-0.076562	0.000000
3	0.076562	0.076562	0.000000
4	-0.076562	0.076562	0.000000
5	-0.040421	-0.040421	0.088911
6	0.040421	-0.040421	0.088911
7	0.040421	0.040421	0.088911
8	-0.040421	0.040421	0.088911
9	2.000000	2.000000	0.001000
10	2.000000	-2.000000	0.001000
11	-2.000000	-2.000000	0.001000
12	-2.000000	2.000000	0.001000
13	-0.000000	-0.088868	0.058505
14	0.088868	0.000000	0.058505
15	0.000000	0.088868	0.058505
16	-0.088868	0.000000	0.058505
17	0.000000	0.000000	0.104580
18	0.000000	0.000000	0.001000
19	0.000000	-0.106849	0.000000
20	0.106849	0.000000	0.000000
21	0.000000	0.106849	0.000000
22	-0.106849	0.000000	0.000000
23	-0.039592	-0.099921	0.000000
24	0.099921	-0.039592	0.000000
25	0.039592	0.099921	0.000000
26	-0.099921	0.039592	0.000000
27	0.000000	-0.044130	0.095697
28	0.044130	-0.000000	0.095697
29	0.000000	0.044130	0.095697
30	-0.044130	0.000000	0.095697
31	-0.065680	-0.065680	0.052960
32	0.065680	-0.065680	0.052960
33	0.065680	0.065680	0.052960
34	-0.065680	0.065680	0.052960
35	-0.042925	-0.090782	0.037489
36	0.042925	-0.090782	0.037489
37	0.022688	-0.069393	0.076992
38	-0.022688	-0.069393	0.076992
39	0.090782	-0.042925	0.037489
40	0.090782	0.042925	0.037489
41	0.069393	0.022688	0.076992
42	0.069393	-0.022688	0.076992
43	0.042925	0.090782	0.037489
44	-0.042925	0.090782	0.037489
45	-0.022688	0.069393	0.076992
46	0.022688	0.069393	0.076992
47	-0.090782	0.042925	0.037489
48	-0.090782	-0.042925	0.037489
49	-0.069393	-0.022688	0.076992
50	-0.069393	0.022688	0.076992
51	-0.018531	-0.018531	0.101730
52	0.018531	-0.018531	0.101730
53	0.018531	0.018531	0.101730
54	-0.018531	0.018531	0.101730
55	0.039592	-0.099921	0.000000
56	0.000000	-0.103571	0.027628
57	0.099921	0.039592	0.000000
58	0.103571	0.000000	0.027628
59	-0.039592	0.099921	0.000000
60	0.000000	0.103571	0.027628
61	-0.099921	-0.039592	0.000000
62	-0.103571	0.000000	0.027628
63	-0.058737	-0.090332	0.000000
64	0.090332	-0.058737	0.000000
65	0.058737	0.090332	0.000000
66	-0.090332	0.058737	0.000000
67	-0.020516	-0.043193	0.094006
68	0.043193	-0.020516	0.094006
69	0.020516	0.043193	0.094006
70	-0.043193	0.020516	0.094006
71	-0.073414	-0.073414	0.028184
72	0.073414	-0.073414	0.028184
73	0.073414	0.073414	0.028184
74	-0.073414	0.073414	0.028184
75	-0.061486	-0.085903	0.020630
76	0.061486	-0.085903	0.020630
77	0.032447	-0.055887	0.083878
78	-0.032447	-0.055887	0.083878
79	0.085903	-0.061486	0.020630
80	0.085903	0.061486	0.020630
81	0.055887	0.032447	0.083878
82	0.055887	-0.032447	0.083878
83	0.061486	0.085903	0.020630
84	-0.061486	0.085903	0.020630
85	-0.032447	0.055887	0.083878
86	0.032447	0.055887	0.083878
87	-0.085903	0.061486	0.020630
88	-0.085903	-0.061486	0.020630
89	-0.055887	-0.032447	0.083878
90	-0.055887	0.032447	0.083878
91	-0.029193	-0.029193	0.096894
92	0.029193	-0.029193	0.096894
93	0.029193	0.029193	0.096894
94	-0.029193	0.029193	0.096894
95	0.019331	-0.105494	0.000000
96	0.000000	-0.106382	0.012820
97	0.105494	0.019331	0.000000
98	0.106382	0.000000	0.012820
99	-0.019331	0.105494	0.000000
100	0.000000	0.106382	0.012820
101	-0.105494	-0.019331	0.000000
102	-0.106382	-0.000000	0.012820
103	-0.019331	-0.105494	0.000000
104	0.105494	-0.019331	0.000000
105	0.019331	0.105494	0.000000
106	-0.105494	0.019331	0.000000
107	0.020516	-0.043193	0.094006
108	0.043193	0.020516	0.094006
109	-0.020516	0.043193	0.094006
110	-0.043193	-0.020516	0.094006
111	-0.054200	-0.054200	0.073596
112	0.054200	-0.054200	0.073596
113	0.054200	0.054200	0.073596
114	-0.054200	0.054200	0.073596
115	-0.021600	-0.091759	0.050198
116	0.021600	-0.091759	0.050198
117	0.011505	-0.080453	0.068506
118	-0.011505	-0.080453	0.068506
119	0.091759	-0.021600	0.050198
120	0.091759	0.021600	0.050198
121	0.080453	0.011505	0.068506
122	0.080453	-0.011505	0.068506
123	0.021600	0.091759	0.050198
124	-0.021600	0.091759	0.050198
125	-0.011505	0.080453	0.068506
126	0.011505	0.080453	0.068506
127	-0.091759	0.021600	0.050198
128	-0.091759	-0.021600	0.050198
129	-0.080453	-0.011505	0.068506
130	-0.080453	0.011505	0.068506
131	-0.008809	-0.008809	0.104055
132	0.008809	-0.008809	0.104055
133	0.008809	0.008809	0.104055
134	-0.008809	0.008809	0.104055
135	0.058737	-0.090332	0.000000
136	-0.000000	-0.097526	0.043814
137	0.090332	0.058737	0.000000
138	0.097526	-0.000000	0.043814
139	-0.058737	0.090332	0.000000
140	0.000000	0.097526	0.043814
141	-0.090332	-0.058737	0.000000
142	-0.097526	0.000000	0.043814
143	-0.034029	-0.082117	0.058933
144	-0.045324	-0.069304	0.066919
145	-0.055309	-0.079830	0.045170
146	0.082117	-0.034029	0.058933
147	0.069304	-0.045324	0.066919
148	0.079830	-0.055309	0.045170
149	0.034029	0.082117	0.058933
150	0.045324	0.069304	0.066919
151	0.055309	0.079830	0.045170
152	-0.082117	0.034029	0.058933
153	-0.069304	0.045324	0.066919
154	-0.079830	0.055309	0.045170
155	-0.019902	0.000000	0.103063
156	-0.031740	0.009853	0.099780
157	-0.031740	-0.009853	0.099780
158	0.022325	-0.099387	0.033269
159	0.021606	-0.103992	0.015303
160	0.042673	-0.096946	0.018232
161	0.055309	-0.079830	0.045170
162	0.045324	-0.069304	0.066919
163	0.034029	-0.082117	0.058933
164	0.011099	-0.057149	0.088216
165	-0.011099	-0.057149	0.088216
166	0.000000	-0.069884	0.079672
167	0.099387	0.022325	0.033269
168	0.103992	0.021606	0.015303
169	0.096946	0.042673	0.018232
170	0.079830	0.055309	0.045170
171	0.069304	0.045324	0.066919
172	0.082117	0.034029	0.058933
173	0.057149	0.011099	0.088216
174	0.057149	-0.011099	0.088216
175	0.069884	-0.000000	0.079672
176	-0.022325	0.099387	0.033269
177	-0.021606	0.103992	0.015303
178	-0.042673	0.096946	0.018232
179	-0.055309	0.079830	0.045170
180	-0.045324	0.069304	0.066919
181	-0.034029	0.082117	0.058933
182	-0.011099	0.057149	0.088216
183	0.011099	0.057149	0.088216
184	0.000000	0.069884	0.079672
185	-0.099387	-0.022325	0.033269
186	-0.103992	-0.021606	0.015303
187	-0.096946	-0.042673	0.018232
188	-0.079830	-0.055309	0.045170
189	-0.069304	-0.045324	0.066919
190	-0.082117	-0.034029	0.058933
191	-0.057149	-0.011099	0.088216
192	-0.057149	0.011099	0.088216
193	-0.069884	-0.000000	0.079672
194	-0.009853	-0.031740	0.099780
195	0.009853	-0.031740	0.099780
196	0.000000	-0.019902	0.103063
197	0.031740	-0.009853	0.099780
198	0.031740	0.009853	0.099780
199	0.019902	0.000000	0.103063
200	0.009853	0.031740	0.099780
201	-0.009853	0.031740	0.099780
202	0.000000	0.019902	0.103063
203	-0.042673	-0.096946	0.018232
204	-0.021606	-0.103992	0.015303
205	-0.022325	-0.099387	0.033269
206	0.096946	-0.042673	0.018232
207	0.103992	-0.021606	0.015303
208	0.099387	-0.022325	0.033269
209	0.042673	0.096946	0.018232
210	0.021606	0.103992	0.015303
211	0.022325	0.099387	0.033269
212	-0.096946	0.042673	0.018232
213	-0.103992	0.021606	0.015303
214	-0.099387	0.022325	0.033269
