1	-0.401461	-0.401461	0.000000
2	0.401461	-0.401461	0.000000
3	0.401461	0.401461	0.000000
4	-0.401461	0.401461	0.000000
5	-0.199947	-0.199947	0.330690
6	0.199947	-0.199947	0.330690
7	0.199947	0.199947	0.330690
8	-0.199947	0.199947	0.330690
9	2.000000	2.000000	0.001000
10	2.000000	-2.000000	0.001000
11	-2.000000	-2.000000	0.001000
12	-2.000000	2.000000	0.001000
13	0.000000	-0.453427	0.225516
14	0.453427	0.000000	0.225516
15	0.000000	0.453427	0.225516
16	-0.453427	-0.000000	0.225516
17	0.000000	0.000000	0.379414
18	0.000000	0.000000	0.001000
19	0.000000	-0.560500	0.000000
20	0.560500	0.000000	0.000000
21	-0.000000	0.560500	0.000000
22	-0.560500	-0.000000	0.000000
23	-0.212889	-0.521734	0.000000
24	0.521734	-0.212889	0.000000
25	0.212889	0.521734	0.000000
26	-0.521734	0.212889	0.000000
27	-0.000000	-0.208463	0.354567
28	0.208463	-0.000000	0.354567
29	0.000000	0.208463	0.354567
30	-0.208463	-0.000000	0.354567
31	-0.338975	-0.338975	0.201547
32	0.338975	-0.338975	0.201547
33	0.338975	0.338975	0.201547
34	-0.338975	0.338975	0.201547
35	-0.231749	-0.465972	0.146438
36	0.231749	-0.465972	0.146438
37	0.112799	-0.345683	0.292369
38	-0.112799	-0.345683	0.292369
39	0.465972	-0.231749	0.146438
40	0.465972	0.231749	0.146438
41	0.345683	0.112799	0.292369
42	0.345683	-0.112799	0.292369
43	0.231749	0.465972	0.146438
44	-0.231749	0.465972	0.146438
45	-0.112799	0.345683	0.292369
46	0.112799	0.345683	0.292369
47	-0.465972	0.231749	0.146438
48	-0.465972	-0.231749	0.146438
49	-0.345683	-0.112799	0.292369
50	-0.345683	0.112799	0.292369
51	-0.094758	-0.094758	0.370017
52	0.094758	-0.094758	0.370017
53	0.094758	0.094758	0.370017
54	-0.094758	0.094758	0.370017
55	0.212889	-0.521734	0.000000
56	0.000000	-0.541842	0.102316
57	0.521734	0.212889	0.000000
58	0.541842	0.000000	0.102316
59	-0.212889	0.521734	0.000000
60	-0.000000	0.541842	0.102316
61	-0.521734	-0.212889	0.000000
62	-0.541842	-0.000000	0.102316
63	-0.311379	-0.471258	0.000000
64	0.471258	-0.311379	0.000000
65	0.311379	0.471258	0.000000
66	-0.471258	0.311379	0.000000
67	-0.100806	-0.206412	0.348697
68	0.206412	-0.100806	0.348697
69	0.100806	0.206412	0.348697
70	-0.206412	0.100806	0.348697
71	-0.382842	-0.382842	0.108898
72	0.382842	-0.382842	0.108898
73	0.382842	0.382842	0.108898
74	-0.382842	0.382842	0.108898
75	-0.327086	-0.444429	0.081035
76	0.327086	-0.444429	0.081035
77	0.159641	-0.276025	0.315473
78	-0.159641	-0.276025	0.315473
79	0.444429	-0.327086	0.081035
80	0.444429	0.327086	0.081035
81	0.276025	0.159641	0.315473
82	0.276025	-0.159641	0.315473
83	0.327086	0.444429	0.081035
84	-0.327086	0.444429	0.081035
85	-0.159641	0.276025	0.315473
86	0.159641	0.276025	0.315473
87	-0.444429	0.327086	0.081035
88	-0.444429	-0.327086	0.081035
89	-0.276025	-0.159641	0.315473
90	-0.276025	0.159641	0.315473
91	-0.145940	-0.145940	0.355080
92	0.145940	-0.145940	0.355080
93	0.145940	0.145940	0.355080
94	-0.145940	0.145940	0.355080
95	0.104730	-0.552434	0.000000
96	-0.000000	-0.557991	0.043543
97	0.552434	0.104730	0.000000
98	0.557991	0.000000	0.043543
99	-0.104730	0.552434	0.000000
100	-0.000000	0.557991	0.043543
101	-0.552434	-0.104730	0.000000
102	-0.557991	-0.000000	0.043543
103	-0.104730	-0.552434	0.000000
104	0.552434	-0.104730	0.000000
105	0.104730	0.552434	0.000000
106	-0.552434	0.104730	0.000000
107	0.100806	-0.206412	0.348697
108	0.206412	0.100806	0.348697
109	-0.100806	0.206412	0.348697
110	-0.206412	-0.100806	0.348697
111	-0.274828	-0.274828	0.277319
112	0.274828	-0.274828	0.277319
113	0.274828	0.274828	0.277319
114	-0.274828	0.274828	0.277319
115	-0.117380	-0.468670	0.196075
116	0.117380	-0.468670	0.196075
117	0.058124	-0.404898	0.262828
118	-0.058124	-0.404898	0.262828
119	0.468670	-0.117380	0.196075
120	0.468670	0.117380	0.196075
121	0.404898	0.058124	0.262828
122	0.404898	-0.058124	0.262828
123	0.117380	0.468670	0.196075
124	-0.117380	0.468670	0.196075
125	-0.058124	0.404898	0.262828
126	0.058124	0.404898	0.262828
127	-0.468670	0.117380	0.196075
128	-0.468670	-0.117380	0.196075
129	-0.404898	-0.058124	0.262828
130	-0.404898	0.058124	0.262828
131	-0.046542	-0.046542	0.377719
132	0.046542	-0.046542	0.377719
133	0.046542	0.046542	0.377719
134	-0.046542	0.046542	0.377719
135	0.311379	-0.471258	0.000000
136	0.000000	-0.504817	0.168414
137	0.471258	0.311379	0.000000
138	0.504817	0.000000	0.168414
139	-0.311379	0.471258	0.000000
140	-0.000000	0.504817	0.168414
141	-0.471258	-0.311379	0.000000
142	-0.504817	-0.000000	0.168414
143	-0.177521	-0.416295	0.227883
144	-0.231873	-0.350579	0.255161
145	-0.290037	-0.410173	0.173785
146	0.416295	-0.177521	0.227883
147	0.350579	-0.231873	0.255161
148	0.410173	-0.290037	0.173785
149	0.177521	0.416295	0.227883
150	0.231873	0.350579	0.255161
151	0.290037	0.410173	0.173785
152	-0.416295	0.177521	0.227883
153	-0.350579	0.231873	0.255161
154	-0.410173	0.290037	0.173785
155	-0.097874	-0.000000	0.374900
156	-0.152317	0.048903	0.365537
157	-0.152317	-0.048903	0.365537
158	0.120741	-0.516343	0.127797
159	0.116624	-0.543781	0.057850
160	0.230226	-0.504041	0.069925
161	0.290037	-0.410173	0.173785
162	0.231873	-0.350579	0.255161
163	0.177521	-0.416295	0.227883
164	0.055225	-0.277671	0.330506
165	-0.055225	-0.277671	0.330506
166	0.000000	-0.345838	0.301944
167	0.516343	0.120741	0.127797
168	0.543781	0.116624	0.057850
169	0.504041	0.230226	0.069925
170	0.410173	0.290037	0.173785
171	0.350579	0.231873	0.255161
172	0.416295	0.177521	0.227883
173	0.277671	0.055225	0.330506
174	0.277671	-0.055225	0.330506
175	0.345838	0.000000	0.301944
176	-0.120741	0.516343	0.127797
177	-0.116624	0.543781	0.057850
178	-0.230226	0.504041	0.069925
179	-0.290037	0.410173	0.173785
180	-0.231873	0.350579	0.255161
181	-0.177521	0.416295	0.227883
182	-0.055225	0.277671	0.330506
183	0.055225	0.277671	0.330506
184	-0.000000	0.345838	0.301944
185	-0.516343	-0.120741	0.127797
186	-0.543781	-0.116624	0.057850
187	-0.504041	-0.230226	0.069925
188	-0.410173	-0.290037	0.173785
189	-0.350579	-0.231873	0.255161
190	-0.416295	-0.177521	0.227883
191	-0.277671	-0.055225	0.330506
192	-0.277671	0.055225	0.330506
193	-0.345838	0.000000	0.301944
194	-0.048903	-0.152317	0.365537
195	0.048903	-0.152317	0.365537
196	0.000000	-0.097874	0.374900
197	0.152317	-0.048903	0.365537
198	0.152317	0.048903	0.365537
199	0.097874	-0.000000	0.374900
200	0.048903	0.152317	0.365537
201	-0.048903	0.152317	0.365537
202	-0.000000	0.097874	0.374900
203	-0.230226	-0.504041	0.069925
204	-0.116624	-0.543781	0.057850
205	-0.120741	-0.516343	0.127797
206	0.504041	-0.230226	0.069925
207	0.543781	-0.116624	0.057850
208	0.516343	-0.120741	0.127797
209	0.230226	0.504041	0.069925
210	0.116624	0.543781	0.057850
211	0.120741	0.516343	0.127797
212	-0.504041	0.230226	0.069925
213	-0.543781	0.116624	0.057850
214	-0.516343	0.120741	0.127797
