<?xml version="1.0" encoding="UTF-8" standalone="no"?>
<!-- Created with matplotlib (https://matplotlib.org/) -->

<svg
   xmlns:dc="http://purl.org/dc/elements/1.1/"
   xmlns:cc="http://creativecommons.org/ns#"
   xmlns:rdf="http://www.w3.org/1999/02/22-rdf-syntax-ns#"
   xmlns:svg="http://www.w3.org/2000/svg"
   xmlns="http://www.w3.org/2000/svg"
   xmlns:xlink="http://www.w3.org/1999/xlink"
   xmlns:sodipodi="http://sodipodi.sourceforge.net/DTD/sodipodi-0.dtd"
   xmlns:inkscape="http://www.inkscape.org/namespaces/inkscape"
   height="150pt"
   version="1.1"
   viewBox="0 0 432 150"
   width="432pt"
   id="svg439"
   sodipodi:docname="hetero.svg"
   inkscape:export-filename="C:\Users\Andre\Desktop\IC_AJAX_JULIEN\works\drops\heterogen\hetero.png"
   inkscape:export-xdpi="613"
   inkscape:export-ydpi="613"
   inkscape:version="0.92.5 (2060ec1f9f, 2020-04-08)">
  <metadata
     id="metadata443">
    <rdf:RDF>
      <cc:Work
         rdf:about="">
        <dc:format>image/svg+xml</dc:format>
        <dc:type
           rdf:resource="http://purl.org/dc/dcmitype/StillImage" />
      </cc:Work>
    </rdf:RDF>
  </metadata>
  <sodipodi:namedview
     pagecolor="#ffffff"
     bordercolor="#666666"
     borderopacity="1"
     objecttolerance="10"
     gridtolerance="10"
     guidetolerance="10"
     inkscape:pageopacity="0"
     inkscape:pageshadow="2"
     inkscape:window-width="1366"
     inkscape:window-height="705"
     id="namedview441"
     showgrid="false"
     inkscape:zoom="0.87126303"
     inkscape:cx="209.18177"
     inkscape:cy="132.78394"
     inkscape:window-x="-8"
     inkscape:window-y="-8"
     inkscape:window-maximized="1"
     inkscape:current-layer="svg439" />
  <defs
     id="defs4"
     style="stroke-linecap:butt;stroke-linejoin:round">
    <style
       type="text/css"
       id="style2">
*{stroke-linecap:butt;stroke-linejoin:round;}
  </style>
  </defs>
  <g
     style="stroke-width:1.38564062;stroke-linecap:butt;stroke-linejoin:round"
     id="patch_1"
     transform="scale(1,0.52083333)">
    <path
       inkscape:connector-curvature="0"
       id="path6"
       style="fill:#ffffff;stroke-width:1.38564062;stroke-linecap:butt;stroke-linejoin:round"
       d="M 0,288 H 432 V 0 H 0 Z" />
  </g>
  <g
     style="stroke-linecap:butt;stroke-linejoin:round"
     id="axes_1"
     transform="translate(9.2466787,-80.678044)">
    <g
       style="stroke-linecap:butt;stroke-linejoin:round"
       id="patch_2">
      <path
         inkscape:connector-curvature="0"
         id="path9"
         style="fill:#ffffff;stroke-linecap:butt;stroke-linejoin:round"
         d="M 54,165.6 H 388.8 V 120.96 H 54 Z" />
    </g>
    <g
       style="stroke-linecap:butt;stroke-linejoin:round"
       id="matplotlib.axis_1">
      <g
         style="stroke-linecap:butt;stroke-linejoin:round"
         id="xtick_1">
        <g
           style="stroke-linecap:butt;stroke-linejoin:round"
           id="line2d_1">
          <defs
             id="defs13">
            <path
               inkscape:connector-curvature="0"
               style="stroke:#000000;stroke-width:0.80000001;stroke-linecap:butt;stroke-linejoin:round"
               id="m897ce4645d"
               d="M 0,0 V 3.5" />
          </defs>
          <g
             style="stroke-linecap:butt;stroke-linejoin:round"
             id="g17">
            <use
               height="100%"
               width="100%"
               id="use15"
               y="165.60001"
               xlink:href="#m897ce4645d"
               x="54"
               style="stroke:#000000;stroke-width:0.80000001;stroke-linecap:butt;stroke-linejoin:round" />
          </g>
        </g>
        <g
           style="stroke-linecap:butt;stroke-linejoin:round"
           id="text_1">
          <!-- −3.0 -->
          <defs
             id="defs24">
            <path
               style="stroke-linecap:butt;stroke-linejoin:round"
               inkscape:connector-curvature="0"
               id="DejaVuSans-8722"
               d="M 10.59375,35.5 H 73.1875 V 27.203125 H 10.59375 Z" />
            <path
               style="stroke-linecap:butt;stroke-linejoin:round"
               inkscape:connector-curvature="0"
               id="DejaVuSans-51"
               d="M 40.578125,39.3125 Q 47.65625,37.796875 51.625,33 q 3.984375,-4.78125 3.984375,-11.8125 0,-10.78125 -7.421875,-16.703125 -7.421875,-5.90625 -21.09375,-5.90625 -4.578125,0 -9.4375,0.90625 -4.859375,0.90625 -10.03125,2.71875 v 9.515625 q 4.09375,-2.390625 8.96875,-3.609375 4.890625,-1.21875 10.21875,-1.21875 9.265625,0 14.125,3.65625 4.859375,3.65625 4.859375,10.640625 0,6.453125 -4.515625,10.078125 -4.515625,3.640625 -12.5625,3.640625 h -8.5 v 8.109375 h 8.890625 q 7.265625,0 11.125,2.90625 3.859375,2.90625 3.859375,8.375 0,5.609375 -3.984375,8.609375 -3.96875,3.015625 -11.390625,3.015625 -4.0625,0 -8.703125,-0.890625 Q 15.375,64.15625 9.8125,62.3125 v 8.78125 q 5.625,1.5625 10.53125,2.34375 4.90625,0.78125 9.25,0.78125 11.234375,0 17.765625,-5.109375 6.546875,-5.09375 6.546875,-13.78125 0,-6.0625 -3.46875,-10.234375 -3.46875,-4.171875 -9.859375,-5.78125 z" />
            <path
               style="stroke-linecap:butt;stroke-linejoin:round"
               inkscape:connector-curvature="0"
               id="DejaVuSans-46"
               d="M 10.6875,12.40625 H 21 V 0 H 10.6875 Z" />
            <path
               style="stroke-linecap:butt;stroke-linejoin:round"
               inkscape:connector-curvature="0"
               id="DejaVuSans-48"
               d="m 31.78125,66.40625 q -7.609375,0 -11.453125,-7.5 Q 16.5,51.421875 16.5,36.375 q 0,-14.984375 3.828125,-22.484375 3.84375,-7.5 11.453125,-7.5 7.671875,0 11.5,7.5 3.84375,7.5 3.84375,22.484375 0,15.046875 -3.84375,22.53125 -3.828125,7.5 -11.5,7.5 z m 0,7.8125 q 12.265625,0 18.734375,-9.703125 6.46875,-9.6875 6.46875,-28.140625 0,-18.40625 -6.46875,-28.109375 -6.46875,-9.6875 -18.734375,-9.6875 -12.25,0 -18.71875,9.6875 Q 6.59375,17.96875 6.59375,36.375 q 0,18.453125 6.46875,28.140625 6.46875,9.703125 18.71875,9.703125 z" />
          </defs>
          <g
             style="stroke-linecap:butt;stroke-linejoin:round"
             id="g34"
             transform="matrix(0.1,0,0,-0.1,41.858594,180.19844)">
            <use
               height="100%"
               width="100%"
               y="0"
               x="0"
               style="stroke-linecap:butt;stroke-linejoin:round"
               id="use26"
               xlink:href="#DejaVuSans-8722" />
            <use
               height="100%"
               width="100%"
               y="0"
               style="stroke-linecap:butt;stroke-linejoin:round"
               id="use28"
               xlink:href="#DejaVuSans-51"
               x="83.789062" />
            <use
               height="100%"
               width="100%"
               y="0"
               style="stroke-linecap:butt;stroke-linejoin:round"
               id="use30"
               xlink:href="#DejaVuSans-46"
               x="147.41211" />
            <use
               height="100%"
               width="100%"
               y="0"
               style="stroke-linecap:butt;stroke-linejoin:round"
               id="use32"
               xlink:href="#DejaVuSans-48"
               x="179.19922" />
          </g>
        </g>
      </g>
      <g
         style="stroke-linecap:butt;stroke-linejoin:round"
         id="xtick_2">
        <g
           style="stroke-linecap:butt;stroke-linejoin:round"
           id="line2d_2">
          <g
             style="stroke-linecap:butt;stroke-linejoin:round"
             id="g40">
            <use
               height="100%"
               width="100%"
               id="use38"
               y="165.60001"
               xlink:href="#m897ce4645d"
               x="87.480003"
               style="stroke:#000000;stroke-width:0.80000001;stroke-linecap:butt;stroke-linejoin:round" />
          </g>
        </g>
        <g
           style="stroke-linecap:butt;stroke-linejoin:round"
           id="text_2">
          <!-- −2.4 -->
          <defs
             id="defs45">
            <path
               style="stroke-linecap:butt;stroke-linejoin:round"
               inkscape:connector-curvature="0"
               id="DejaVuSans-50"
               d="M 19.1875,8.296875 H 53.609375 V 0 H 7.328125 v 8.296875 q 5.609375,5.8125 15.296875,15.59375 9.703125,9.796875 12.1875,12.640625 4.734375,5.3125 6.609375,9 1.890625,3.6875 1.890625,7.25 0,5.8125 -4.078125,9.46875 -4.078125,3.671875 -10.625,3.671875 -4.640625,0 -9.796875,-1.609375 -5.140625,-1.609375 -11,-4.890625 v 9.96875 Q 13.765625,71.78125 18.9375,73 q 5.1875,1.21875 9.484375,1.21875 11.328125,0 18.0625,-5.671875 6.734375,-5.65625 6.734375,-15.125 0,-4.5 -1.6875,-8.53125 Q 49.859375,40.875 45.40625,35.40625 44.1875,33.984375 37.640625,27.21875 31.109375,20.453125 19.1875,8.296875 Z" />
            <path
               style="stroke-linecap:butt;stroke-linejoin:round"
               inkscape:connector-curvature="0"
               id="DejaVuSans-52"
               d="M 37.796875,64.3125 12.890625,25.390625 h 24.90625 z m -2.59375,8.59375 h 12.40625 V 25.390625 h 10.40625 V 17.1875 H 47.609375 V 0 h -9.8125 V 17.1875 H 4.890625 v 9.515625 z" />
          </defs>
          <g
             style="stroke-linecap:butt;stroke-linejoin:round"
             id="g55"
             transform="matrix(0.1,0,0,-0.1,75.338594,180.19844)">
            <use
               height="100%"
               width="100%"
               y="0"
               x="0"
               style="stroke-linecap:butt;stroke-linejoin:round"
               id="use47"
               xlink:href="#DejaVuSans-8722" />
            <use
               height="100%"
               width="100%"
               y="0"
               style="stroke-linecap:butt;stroke-linejoin:round"
               id="use49"
               xlink:href="#DejaVuSans-50"
               x="83.789062" />
            <use
               height="100%"
               width="100%"
               y="0"
               style="stroke-linecap:butt;stroke-linejoin:round"
               id="use51"
               xlink:href="#DejaVuSans-46"
               x="147.41211" />
            <use
               height="100%"
               width="100%"
               y="0"
               style="stroke-linecap:butt;stroke-linejoin:round"
               id="use53"
               xlink:href="#DejaVuSans-52"
               x="179.19922" />
          </g>
        </g>
      </g>
      <g
         style="stroke-linecap:butt;stroke-linejoin:round"
         id="xtick_3">
        <g
           style="stroke-linecap:butt;stroke-linejoin:round"
           id="line2d_3">
          <g
             style="stroke-linecap:butt;stroke-linejoin:round"
             id="g61">
            <use
               height="100%"
               width="100%"
               id="use59"
               y="165.60001"
               xlink:href="#m897ce4645d"
               x="120.96"
               style="stroke:#000000;stroke-width:0.80000001;stroke-linecap:butt;stroke-linejoin:round" />
          </g>
        </g>
        <g
           style="stroke-linecap:butt;stroke-linejoin:round"
           id="text_3">
          <!-- −1.8 -->
          <defs
             id="defs66">
            <path
               style="stroke-linecap:butt;stroke-linejoin:round"
               inkscape:connector-curvature="0"
               id="DejaVuSans-49"
               d="m 12.40625,8.296875 h 16.109375 v 55.625 L 10.984375,60.40625 v 8.984375 l 17.4375,3.515625 H 38.28125 V 8.296875 H 54.390625 V 0 H 12.40625 Z" />
            <path
               style="stroke-linecap:butt;stroke-linejoin:round"
               inkscape:connector-curvature="0"
               id="DejaVuSans-56"
               d="m 31.78125,34.625 q -7.03125,0 -11.0625,-3.765625 -4.015625,-3.765625 -4.015625,-10.34375 0,-6.59375 4.015625,-10.359375 4.03125,-3.765625 11.0625,-3.765625 7.03125,0 11.078125,3.78125 4.0625,3.796875 4.0625,10.34375 0,6.578125 -4.03125,10.34375 Q 38.875,34.625 31.78125,34.625 Z m -9.859375,4.1875 Q 15.578125,40.375 12.03125,44.71875 8.5,49.078125 8.5,55.328125 q 0,8.734375 6.21875,13.8125 6.234375,5.078125 17.0625,5.078125 10.890625,0 17.09375,-5.078125 6.203125,-5.078125 6.203125,-13.8125 0,-6.25 -3.546875,-10.609375 Q 48,40.375 41.703125,38.8125 q 7.125,-1.65625 11.09375,-6.5 3.984375,-4.828125 3.984375,-11.796875 0,-10.609375 -6.46875,-16.28125 -6.46875,-5.65625 -18.53125,-5.65625 -12.046875,0 -18.53125,5.65625 -6.46875,5.671875 -6.46875,16.28125 0,6.96875 4,11.796875 4.015625,4.84375 11.140625,6.5 z M 18.3125,54.390625 q 0,-5.65625 3.53125,-8.828125 3.546875,-3.171875 9.9375,-3.171875 6.359375,0 9.9375,3.171875 3.59375,3.171875 3.59375,8.828125 0,5.671875 -3.59375,8.84375 -3.578125,3.171875 -9.9375,3.171875 -6.390625,0 -9.9375,-3.171875 Q 18.3125,60.0625 18.3125,54.390625 Z" />
          </defs>
          <g
             style="stroke-linecap:butt;stroke-linejoin:round"
             id="g76"
             transform="matrix(0.1,0,0,-0.1,108.81859,180.19844)">
            <use
               height="100%"
               width="100%"
               y="0"
               x="0"
               style="stroke-linecap:butt;stroke-linejoin:round"
               id="use68"
               xlink:href="#DejaVuSans-8722" />
            <use
               height="100%"
               width="100%"
               y="0"
               style="stroke-linecap:butt;stroke-linejoin:round"
               id="use70"
               xlink:href="#DejaVuSans-49"
               x="83.789062" />
            <use
               height="100%"
               width="100%"
               y="0"
               style="stroke-linecap:butt;stroke-linejoin:round"
               id="use72"
               xlink:href="#DejaVuSans-46"
               x="147.41211" />
            <use
               height="100%"
               width="100%"
               y="0"
               style="stroke-linecap:butt;stroke-linejoin:round"
               id="use74"
               xlink:href="#DejaVuSans-56"
               x="179.19922" />
          </g>
        </g>
      </g>
      <g
         style="stroke-linecap:butt;stroke-linejoin:round"
         id="xtick_4">
        <g
           style="stroke-linecap:butt;stroke-linejoin:round"
           id="line2d_4">
          <g
             style="stroke-linecap:butt;stroke-linejoin:round"
             id="g82">
            <use
               height="100%"
               width="100%"
               id="use80"
               y="165.60001"
               xlink:href="#m897ce4645d"
               x="154.44"
               style="stroke:#000000;stroke-width:0.80000001;stroke-linecap:butt;stroke-linejoin:round" />
          </g>
        </g>
        <g
           style="stroke-linecap:butt;stroke-linejoin:round"
           id="text_4">
          <!-- −1.2 -->
          <g
             style="stroke-linecap:butt;stroke-linejoin:round"
             id="g93"
             transform="matrix(0.1,0,0,-0.1,142.29859,180.19844)">
            <use
               height="100%"
               width="100%"
               y="0"
               x="0"
               style="stroke-linecap:butt;stroke-linejoin:round"
               id="use85"
               xlink:href="#DejaVuSans-8722" />
            <use
               height="100%"
               width="100%"
               y="0"
               style="stroke-linecap:butt;stroke-linejoin:round"
               id="use87"
               xlink:href="#DejaVuSans-49"
               x="83.789062" />
            <use
               height="100%"
               width="100%"
               y="0"
               style="stroke-linecap:butt;stroke-linejoin:round"
               id="use89"
               xlink:href="#DejaVuSans-46"
               x="147.41211" />
            <use
               height="100%"
               width="100%"
               y="0"
               style="stroke-linecap:butt;stroke-linejoin:round"
               id="use91"
               xlink:href="#DejaVuSans-50"
               x="179.19922" />
          </g>
        </g>
      </g>
      <g
         style="stroke-linecap:butt;stroke-linejoin:round"
         id="xtick_5">
        <g
           style="stroke-linecap:butt;stroke-linejoin:round"
           id="line2d_5">
          <g
             style="stroke-linecap:butt;stroke-linejoin:round"
             id="g99">
            <use
               height="100%"
               width="100%"
               id="use97"
               y="165.60001"
               xlink:href="#m897ce4645d"
               x="187.92"
               style="stroke:#000000;stroke-width:0.80000001;stroke-linecap:butt;stroke-linejoin:round" />
          </g>
        </g>
        <g
           style="stroke-linecap:butt;stroke-linejoin:round"
           id="text_5">
          <!-- −0.6 -->
          <defs
             id="defs103">
            <path
               style="stroke-linecap:butt;stroke-linejoin:round"
               inkscape:connector-curvature="0"
               id="DejaVuSans-54"
               d="m 33.015625,40.375 q -6.640625,0 -10.53125,-4.546875 -3.875,-4.53125 -3.875,-12.4375 0,-7.859375 3.875,-12.4375 3.890625,-4.5625 10.53125,-4.5625 6.640625,0 10.515625,4.5625 3.875,4.578125 3.875,12.4375 0,7.90625 -3.875,12.4375 Q 39.65625,40.375 33.015625,40.375 Z M 52.59375,71.296875 V 62.3125 q -3.71875,1.75 -7.5,2.671875 -3.78125,0.9375 -7.5,0.9375 -9.765625,0 -14.921875,-6.59375 -5.140625,-6.59375 -5.875,-19.921875 2.875,4.25 7.21875,6.515625 4.359375,2.265625 9.578125,2.265625 10.984375,0 17.359375,-6.671875 6.375,-6.65625 6.375,-18.125 0,-11.234375 -6.640625,-18.03125 -6.640625,-6.78125 -17.671875,-6.78125 -12.65625,0 -19.34375,9.6875 -6.6875,9.703125 -6.6875,28.109375 0,17.28125 8.203125,27.5625 8.203125,10.28125 22.015625,10.28125 3.71875,0 7.5,-0.734375 3.78125,-0.734375 7.890625,-2.1875 z" />
          </defs>
          <g
             style="stroke-linecap:butt;stroke-linejoin:round"
             id="g113"
             transform="matrix(0.1,0,0,-0.1,175.77859,180.19844)">
            <use
               height="100%"
               width="100%"
               y="0"
               x="0"
               style="stroke-linecap:butt;stroke-linejoin:round"
               id="use105"
               xlink:href="#DejaVuSans-8722" />
            <use
               height="100%"
               width="100%"
               y="0"
               style="stroke-linecap:butt;stroke-linejoin:round"
               id="use107"
               xlink:href="#DejaVuSans-48"
               x="83.789062" />
            <use
               height="100%"
               width="100%"
               y="0"
               style="stroke-linecap:butt;stroke-linejoin:round"
               id="use109"
               xlink:href="#DejaVuSans-46"
               x="147.41211" />
            <use
               height="100%"
               width="100%"
               y="0"
               style="stroke-linecap:butt;stroke-linejoin:round"
               id="use111"
               xlink:href="#DejaVuSans-54"
               x="179.19922" />
          </g>
        </g>
      </g>
      <g
         style="stroke-linecap:butt;stroke-linejoin:round"
         id="xtick_6">
        <g
           style="stroke-linecap:butt;stroke-linejoin:round"
           id="line2d_6">
          <g
             style="stroke-linecap:butt;stroke-linejoin:round"
             id="g119">
            <use
               height="100%"
               width="100%"
               id="use117"
               y="165.60001"
               xlink:href="#m897ce4645d"
               x="221.39999"
               style="stroke:#000000;stroke-width:0.80000001;stroke-linecap:butt;stroke-linejoin:round" />
          </g>
        </g>
        <g
           style="stroke-linecap:butt;stroke-linejoin:round"
           id="text_6">
          <!-- 0.0 -->
          <g
             style="stroke-linecap:butt;stroke-linejoin:round"
             id="g128"
             transform="matrix(0.1,0,0,-0.1,213.44844,180.19844)">
            <use
               height="100%"
               width="100%"
               y="0"
               x="0"
               style="stroke-linecap:butt;stroke-linejoin:round"
               id="use122"
               xlink:href="#DejaVuSans-48" />
            <use
               height="100%"
               width="100%"
               y="0"
               style="stroke-linecap:butt;stroke-linejoin:round"
               id="use124"
               xlink:href="#DejaVuSans-46"
               x="63.623047" />
            <use
               height="100%"
               width="100%"
               y="0"
               style="stroke-linecap:butt;stroke-linejoin:round"
               id="use126"
               xlink:href="#DejaVuSans-48"
               x="95.410156" />
          </g>
        </g>
      </g>
      <g
         style="stroke-linecap:butt;stroke-linejoin:round"
         id="xtick_7">
        <g
           style="stroke-linecap:butt;stroke-linejoin:round"
           id="line2d_7">
          <g
             style="stroke-linecap:butt;stroke-linejoin:round"
             id="g134">
            <use
               height="100%"
               width="100%"
               id="use132"
               y="165.60001"
               xlink:href="#m897ce4645d"
               x="254.88"
               style="stroke:#000000;stroke-width:0.80000001;stroke-linecap:butt;stroke-linejoin:round" />
          </g>
        </g>
        <g
           style="stroke-linecap:butt;stroke-linejoin:round"
           id="text_7">
          <!-- 0.6 -->
          <g
             style="stroke-linecap:butt;stroke-linejoin:round"
             id="g143"
             transform="matrix(0.1,0,0,-0.1,246.92844,180.19844)">
            <use
               height="100%"
               width="100%"
               y="0"
               x="0"
               style="stroke-linecap:butt;stroke-linejoin:round"
               id="use137"
               xlink:href="#DejaVuSans-48" />
            <use
               height="100%"
               width="100%"
               y="0"
               style="stroke-linecap:butt;stroke-linejoin:round"
               id="use139"
               xlink:href="#DejaVuSans-46"
               x="63.623047" />
            <use
               height="100%"
               width="100%"
               y="0"
               style="stroke-linecap:butt;stroke-linejoin:round"
               id="use141"
               xlink:href="#DejaVuSans-54"
               x="95.410156" />
          </g>
        </g>
      </g>
      <g
         style="stroke-linecap:butt;stroke-linejoin:round"
         id="xtick_8">
        <g
           style="stroke-linecap:butt;stroke-linejoin:round"
           id="line2d_8">
          <g
             style="stroke-linecap:butt;stroke-linejoin:round"
             id="g149">
            <use
               height="100%"
               width="100%"
               id="use147"
               y="165.60001"
               xlink:href="#m897ce4645d"
               x="288.35999"
               style="stroke:#000000;stroke-width:0.80000001;stroke-linecap:butt;stroke-linejoin:round" />
          </g>
        </g>
        <g
           style="stroke-linecap:butt;stroke-linejoin:round"
           id="text_8">
          <!-- 1.2 -->
          <g
             style="stroke-linecap:butt;stroke-linejoin:round"
             id="g158"
             transform="matrix(0.1,0,0,-0.1,280.40844,180.19844)">
            <use
               height="100%"
               width="100%"
               y="0"
               x="0"
               style="stroke-linecap:butt;stroke-linejoin:round"
               id="use152"
               xlink:href="#DejaVuSans-49" />
            <use
               height="100%"
               width="100%"
               y="0"
               style="stroke-linecap:butt;stroke-linejoin:round"
               id="use154"
               xlink:href="#DejaVuSans-46"
               x="63.623047" />
            <use
               height="100%"
               width="100%"
               y="0"
               style="stroke-linecap:butt;stroke-linejoin:round"
               id="use156"
               xlink:href="#DejaVuSans-50"
               x="95.410156" />
          </g>
        </g>
      </g>
      <g
         style="stroke-linecap:butt;stroke-linejoin:round"
         id="xtick_9">
        <g
           style="stroke-linecap:butt;stroke-linejoin:round"
           id="line2d_9">
          <g
             style="stroke-linecap:butt;stroke-linejoin:round"
             id="g164">
            <use
               height="100%"
               width="100%"
               id="use162"
               y="165.60001"
               xlink:href="#m897ce4645d"
               x="321.84"
               style="stroke:#000000;stroke-width:0.80000001;stroke-linecap:butt;stroke-linejoin:round" />
          </g>
        </g>
        <g
           style="stroke-linecap:butt;stroke-linejoin:round"
           id="text_9">
          <!-- 1.8 -->
          <g
             style="stroke-linecap:butt;stroke-linejoin:round"
             id="g173"
             transform="matrix(0.1,0,0,-0.1,313.88844,180.19844)">
            <use
               height="100%"
               width="100%"
               y="0"
               x="0"
               style="stroke-linecap:butt;stroke-linejoin:round"
               id="use167"
               xlink:href="#DejaVuSans-49" />
            <use
               height="100%"
               width="100%"
               y="0"
               style="stroke-linecap:butt;stroke-linejoin:round"
               id="use169"
               xlink:href="#DejaVuSans-46"
               x="63.623047" />
            <use
               height="100%"
               width="100%"
               y="0"
               style="stroke-linecap:butt;stroke-linejoin:round"
               id="use171"
               xlink:href="#DejaVuSans-56"
               x="95.410156" />
          </g>
        </g>
      </g>
      <g
         style="stroke-linecap:butt;stroke-linejoin:round"
         id="xtick_10">
        <g
           style="stroke-linecap:butt;stroke-linejoin:round"
           id="line2d_10">
          <g
             style="stroke-linecap:butt;stroke-linejoin:round"
             id="g179">
            <use
               height="100%"
               width="100%"
               id="use177"
               y="165.60001"
               xlink:href="#m897ce4645d"
               x="355.32001"
               style="stroke:#000000;stroke-width:0.80000001;stroke-linecap:butt;stroke-linejoin:round" />
          </g>
        </g>
        <g
           style="stroke-linecap:butt;stroke-linejoin:round"
           id="text_10">
          <!-- 2.4 -->
          <g
             style="stroke-linecap:butt;stroke-linejoin:round"
             id="g188"
             transform="matrix(0.1,0,0,-0.1,347.36844,180.19844)">
            <use
               height="100%"
               width="100%"
               y="0"
               x="0"
               style="stroke-linecap:butt;stroke-linejoin:round"
               id="use182"
               xlink:href="#DejaVuSans-50" />
            <use
               height="100%"
               width="100%"
               y="0"
               style="stroke-linecap:butt;stroke-linejoin:round"
               id="use184"
               xlink:href="#DejaVuSans-46"
               x="63.623047" />
            <use
               height="100%"
               width="100%"
               y="0"
               style="stroke-linecap:butt;stroke-linejoin:round"
               id="use186"
               xlink:href="#DejaVuSans-52"
               x="95.410156" />
          </g>
        </g>
      </g>
      <g
         style="stroke-linecap:butt;stroke-linejoin:round"
         id="xtick_11">
        <g
           style="stroke-linecap:butt;stroke-linejoin:round"
           id="line2d_11">
          <g
             style="stroke-linecap:butt;stroke-linejoin:round"
             id="g194">
            <use
               height="100%"
               width="100%"
               id="use192"
               y="165.60001"
               xlink:href="#m897ce4645d"
               x="388.79999"
               style="stroke:#000000;stroke-width:0.80000001;stroke-linecap:butt;stroke-linejoin:round" />
          </g>
        </g>
        <g
           style="stroke-linecap:butt;stroke-linejoin:round"
           id="text_11">
          <!-- 3.0 -->
          <g
             style="stroke-linecap:butt;stroke-linejoin:round"
             id="g203"
             transform="matrix(0.1,0,0,-0.1,380.84844,180.19844)">
            <use
               height="100%"
               width="100%"
               y="0"
               x="0"
               style="stroke-linecap:butt;stroke-linejoin:round"
               id="use197"
               xlink:href="#DejaVuSans-51" />
            <use
               height="100%"
               width="100%"
               y="0"
               style="stroke-linecap:butt;stroke-linejoin:round"
               id="use199"
               xlink:href="#DejaVuSans-46"
               x="63.623047" />
            <use
               height="100%"
               width="100%"
               y="0"
               style="stroke-linecap:butt;stroke-linejoin:round"
               id="use201"
               xlink:href="#DejaVuSans-48"
               x="95.410156" />
          </g>
        </g>
      </g>
      <g
         style="stroke-linecap:butt;stroke-linejoin:round"
         id="text_12">
        <!-- r axis -->
        <defs
           id="defs213">
          <path
             style="stroke-linecap:butt;stroke-linejoin:round"
             inkscape:connector-curvature="0"
             id="DejaVuSans-114"
             d="m 41.109375,46.296875 q -1.515625,0.875 -3.296875,1.28125 Q 36.03125,48 33.890625,48 26.265625,48 22.1875,43.046875 18.109375,38.09375 18.109375,28.8125 V 0 h -9.03125 v 54.6875 h 9.03125 v -8.5 q 2.84375,4.984375 7.375,7.390625 Q 30.03125,56 36.53125,56 q 0.921875,0 2.046875,-0.125 1.125,-0.109375 2.484375,-0.359375 z" />
          <path
             style="stroke-linecap:butt;stroke-linejoin:round"
             inkscape:connector-curvature="0"
             d=""
             id="DejaVuSans-32" />
          <path
             style="stroke-linecap:butt;stroke-linejoin:round"
             inkscape:connector-curvature="0"
             id="DejaVuSans-97"
             d="m 34.28125,27.484375 q -10.890625,0 -15.09375,-2.484375 -4.203125,-2.484375 -4.203125,-8.5 0,-4.78125 3.15625,-7.59375 3.15625,-2.796875 8.5625,-2.796875 7.484375,0 12,5.296875 4.515625,5.296875 4.515625,14.078125 v 2 z m 17.921875,3.71875 V 0 H 43.21875 v 8.296875 q -3.078125,-4.96875 -7.671875,-7.34375 -4.59375,-2.375 -11.234375,-2.375 -8.390625,0 -13.359375,4.71875 Q 6,8.015625 6,15.921875 q 0,9.21875 6.171875,13.90625 6.1875,4.6875 18.4375,4.6875 H 43.21875 v 0.890625 q 0,6.203125 -4.078125,9.59375 -4.078125,3.390625 -11.453125,3.390625 -4.6875,0 -9.140625,-1.125 -4.4375,-1.125 -8.53125,-3.375 v 8.3125 q 4.921875,1.90625 9.5625,2.84375 Q 24.21875,56 28.609375,56 q 11.875,0 17.734375,-6.15625 5.859375,-6.140625 5.859375,-18.640625 z" />
          <path
             style="stroke-linecap:butt;stroke-linejoin:round"
             inkscape:connector-curvature="0"
             id="DejaVuSans-120"
             d="M 54.890625,54.6875 35.109375,28.078125 55.90625,0 H 45.3125 L 29.390625,21.484375 13.484375,0 H 2.875 L 24.125,28.609375 4.6875,54.6875 h 10.59375 l 14.5,-19.484375 14.5,19.484375 z" />
          <path
             style="stroke-linecap:butt;stroke-linejoin:round"
             inkscape:connector-curvature="0"
             id="DejaVuSans-105"
             d="M 9.421875,54.6875 H 18.40625 V 0 H 9.421875 Z m 0,21.296875 H 18.40625 V 64.59375 H 9.421875 Z" />
          <path
             style="stroke-linecap:butt;stroke-linejoin:round"
             inkscape:connector-curvature="0"
             id="DejaVuSans-115"
             d="m 44.28125,53.078125 v -8.5 Q 40.484375,46.53125 36.375,47.5 q -4.09375,0.984375 -8.5,0.984375 -6.6875,0 -10.03125,-2.046875 Q 14.5,44.390625 14.5,40.28125 q 0,-3.125 2.390625,-4.90625 2.390625,-1.78125 9.625,-3.390625 l 3.078125,-0.6875 Q 39.15625,29.25 43.1875,25.515625 47.21875,21.78125 47.21875,15.09375 q 0,-7.625 -6.03125,-12.078125 -6.03125,-4.4375 -16.578125,-4.4375 -4.390625,0 -9.15625,0.859375 Q 10.6875,0.296875 5.421875,2 v 9.28125 q 4.984375,-2.59375 9.8125,-3.890625 4.828125,-1.28125 9.578125,-1.28125 6.34375,0 9.75,2.171875 3.421875,2.171875 3.421875,6.125 0,3.65625 -2.46875,5.609375 -2.453125,1.953125 -10.8125,3.765625 l -3.125,0.734375 q -8.34375,1.75 -12.0625,5.390625 -3.703125,3.640625 -3.703125,9.984375 0,7.71875 5.46875,11.90625 Q 16.75,56 26.8125,56 q 4.96875,0 9.359375,-0.734375 4.40625,-0.71875 8.109375,-2.1875 z" />
        </defs>
        <g
           style="stroke-linecap:butt;stroke-linejoin:round"
           id="g227"
           transform="matrix(0.1,0,0,-0.1,207.73828,193.87656)">
          <use
             height="100%"
             width="100%"
             y="0"
             x="0"
             style="stroke-linecap:butt;stroke-linejoin:round"
             id="use215"
             xlink:href="#DejaVuSans-114" />
          <use
             height="100%"
             width="100%"
             y="0"
             style="stroke-linecap:butt;stroke-linejoin:round"
             id="use217"
             xlink:href="#DejaVuSans-32"
             x="41.113281" />
          <use
             height="100%"
             width="100%"
             y="0"
             style="stroke-linecap:butt;stroke-linejoin:round"
             id="use219"
             xlink:href="#DejaVuSans-97"
             x="72.900391" />
          <use
             height="100%"
             width="100%"
             y="0"
             style="stroke-linecap:butt;stroke-linejoin:round"
             id="use221"
             xlink:href="#DejaVuSans-120"
             x="134.17969" />
          <use
             height="100%"
             width="100%"
             y="0"
             style="stroke-linecap:butt;stroke-linejoin:round"
             id="use223"
             xlink:href="#DejaVuSans-105"
             x="193.35938" />
          <use
             height="100%"
             width="100%"
             y="0"
             style="stroke-linecap:butt;stroke-linejoin:round"
             id="use225"
             xlink:href="#DejaVuSans-115"
             x="221.14258" />
        </g>
      </g>
    </g>
    <g
       style="stroke-linecap:butt;stroke-linejoin:round"
       id="matplotlib.axis_2">
      <g
         style="stroke-linecap:butt;stroke-linejoin:round"
         id="ytick_1">
        <g
           style="stroke-linecap:butt;stroke-linejoin:round"
           id="line2d_12">
          <defs
             id="defs232">
            <path
               inkscape:connector-curvature="0"
               style="stroke:#000000;stroke-width:0.80000001;stroke-linecap:butt;stroke-linejoin:round"
               id="mc79c9e6f19"
               d="M 0,0 H -3.5" />
          </defs>
          <g
             style="stroke-linecap:butt;stroke-linejoin:round"
             id="g236">
            <use
               height="100%"
               width="100%"
               id="use234"
               y="165.60001"
               xlink:href="#mc79c9e6f19"
               x="54"
               style="stroke:#000000;stroke-width:0.80000001;stroke-linecap:butt;stroke-linejoin:round" />
          </g>
        </g>
        <g
           style="stroke-linecap:butt;stroke-linejoin:round"
           id="text_13">
          <!-- 0.0 -->
          <g
             style="stroke-linecap:butt;stroke-linejoin:round"
             id="g245"
             transform="matrix(0.1,0,0,-0.1,31.096875,169.39922)">
            <use
               height="100%"
               width="100%"
               y="0"
               x="0"
               style="stroke-linecap:butt;stroke-linejoin:round"
               id="use239"
               xlink:href="#DejaVuSans-48" />
            <use
               height="100%"
               width="100%"
               y="0"
               style="stroke-linecap:butt;stroke-linejoin:round"
               id="use241"
               xlink:href="#DejaVuSans-46"
               x="63.623047" />
            <use
               height="100%"
               width="100%"
               y="0"
               style="stroke-linecap:butt;stroke-linejoin:round"
               id="use243"
               xlink:href="#DejaVuSans-48"
               x="95.410156" />
          </g>
        </g>
      </g>
      <g
         style="stroke-linecap:butt;stroke-linejoin:round"
         id="ytick_2">
        <g
           style="stroke-linecap:butt;stroke-linejoin:round"
           id="line2d_13">
          <g
             style="stroke-linecap:butt;stroke-linejoin:round"
             id="g251">
            <use
               height="100%"
               width="100%"
               id="use249"
               y="154.44"
               xlink:href="#mc79c9e6f19"
               x="54"
               style="stroke:#000000;stroke-width:0.80000001;stroke-linecap:butt;stroke-linejoin:round" />
          </g>
        </g>
        <g
           style="stroke-linecap:butt;stroke-linejoin:round"
           id="text_14">
          <!-- 0.2 -->
          <g
             style="stroke-linecap:butt;stroke-linejoin:round"
             id="g260"
             transform="matrix(0.1,0,0,-0.1,31.096875,158.23922)">
            <use
               height="100%"
               width="100%"
               y="0"
               x="0"
               style="stroke-linecap:butt;stroke-linejoin:round"
               id="use254"
               xlink:href="#DejaVuSans-48" />
            <use
               height="100%"
               width="100%"
               y="0"
               style="stroke-linecap:butt;stroke-linejoin:round"
               id="use256"
               xlink:href="#DejaVuSans-46"
               x="63.623047" />
            <use
               height="100%"
               width="100%"
               y="0"
               style="stroke-linecap:butt;stroke-linejoin:round"
               id="use258"
               xlink:href="#DejaVuSans-50"
               x="95.410156" />
          </g>
        </g>
      </g>
      <g
         style="stroke-linecap:butt;stroke-linejoin:round"
         id="ytick_3">
        <g
           style="stroke-linecap:butt;stroke-linejoin:round"
           id="line2d_14">
          <g
             style="stroke-linecap:butt;stroke-linejoin:round"
             id="g266">
            <use
               height="100%"
               width="100%"
               id="use264"
               y="143.28"
               xlink:href="#mc79c9e6f19"
               x="54"
               style="stroke:#000000;stroke-width:0.80000001;stroke-linecap:butt;stroke-linejoin:round" />
          </g>
        </g>
        <g
           style="stroke-linecap:butt;stroke-linejoin:round"
           id="text_15">
          <!-- 0.4 -->
          <g
             style="stroke-linecap:butt;stroke-linejoin:round"
             id="g275"
             transform="matrix(0.1,0,0,-0.1,31.096875,147.07922)">
            <use
               height="100%"
               width="100%"
               y="0"
               x="0"
               style="stroke-linecap:butt;stroke-linejoin:round"
               id="use269"
               xlink:href="#DejaVuSans-48" />
            <use
               height="100%"
               width="100%"
               y="0"
               style="stroke-linecap:butt;stroke-linejoin:round"
               id="use271"
               xlink:href="#DejaVuSans-46"
               x="63.623047" />
            <use
               height="100%"
               width="100%"
               y="0"
               style="stroke-linecap:butt;stroke-linejoin:round"
               id="use273"
               xlink:href="#DejaVuSans-52"
               x="95.410156" />
          </g>
        </g>
      </g>
      <g
         style="stroke-linecap:butt;stroke-linejoin:round"
         id="ytick_4">
        <g
           style="stroke-linecap:butt;stroke-linejoin:round"
           id="line2d_15">
          <g
             style="stroke-linecap:butt;stroke-linejoin:round"
             id="g281">
            <use
               height="100%"
               width="100%"
               id="use279"
               y="132.12"
               xlink:href="#mc79c9e6f19"
               x="54"
               style="stroke:#000000;stroke-width:0.80000001;stroke-linecap:butt;stroke-linejoin:round" />
          </g>
        </g>
        <g
           style="stroke-linecap:butt;stroke-linejoin:round"
           id="text_16">
          <!-- 0.6 -->
          <g
             style="stroke-linecap:butt;stroke-linejoin:round"
             id="g290"
             transform="matrix(0.1,0,0,-0.1,31.096875,135.91922)">
            <use
               height="100%"
               width="100%"
               y="0"
               x="0"
               style="stroke-linecap:butt;stroke-linejoin:round"
               id="use284"
               xlink:href="#DejaVuSans-48" />
            <use
               height="100%"
               width="100%"
               y="0"
               style="stroke-linecap:butt;stroke-linejoin:round"
               id="use286"
               xlink:href="#DejaVuSans-46"
               x="63.623047" />
            <use
               height="100%"
               width="100%"
               y="0"
               style="stroke-linecap:butt;stroke-linejoin:round"
               id="use288"
               xlink:href="#DejaVuSans-54"
               x="95.410156" />
          </g>
        </g>
      </g>
      <g
         style="stroke-linecap:butt;stroke-linejoin:round"
         id="ytick_5">
        <g
           style="stroke-linecap:butt;stroke-linejoin:round"
           id="line2d_16">
          <g
             style="stroke-linecap:butt;stroke-linejoin:round"
             id="g296">
            <use
               height="100%"
               width="100%"
               id="use294"
               y="120.96"
               xlink:href="#mc79c9e6f19"
               x="54"
               style="stroke:#000000;stroke-width:0.80000001;stroke-linecap:butt;stroke-linejoin:round" />
          </g>
        </g>
        <g
           style="stroke-linecap:butt;stroke-linejoin:round"
           id="text_17">
          <!-- 0.8 -->
          <g
             style="stroke-linecap:butt;stroke-linejoin:round"
             id="g305"
             transform="matrix(0.1,0,0,-0.1,31.096875,124.75922)">
            <use
               height="100%"
               width="100%"
               y="0"
               x="0"
               style="stroke-linecap:butt;stroke-linejoin:round"
               id="use299"
               xlink:href="#DejaVuSans-48" />
            <use
               height="100%"
               width="100%"
               y="0"
               style="stroke-linecap:butt;stroke-linejoin:round"
               id="use301"
               xlink:href="#DejaVuSans-46"
               x="63.623047" />
            <use
               height="100%"
               width="100%"
               y="0"
               style="stroke-linecap:butt;stroke-linejoin:round"
               id="use303"
               xlink:href="#DejaVuSans-56"
               x="95.410156" />
          </g>
        </g>
      </g>
      <g
         style="stroke-linecap:butt;stroke-linejoin:round"
         id="text_18">
        <!-- z axis -->
        <defs
           id="defs310">
          <path
             style="stroke-linecap:butt;stroke-linejoin:round"
             inkscape:connector-curvature="0"
             id="DejaVuSans-122"
             d="M 5.515625,54.6875 H 48.1875 V 46.484375 L 14.40625,7.171875 H 48.1875 V 0 H 4.296875 v 8.203125 l 33.796875,39.3125 H 5.515625 Z" />
        </defs>
        <g
           style="stroke-linecap:butt;stroke-linejoin:round"
           id="g324"
           transform="matrix(0,-0.1,-0.1,0,25.017187,157.51047)">
          <use
             height="100%"
             width="100%"
             y="0"
             x="0"
             style="stroke-linecap:butt;stroke-linejoin:round"
             id="use312"
             xlink:href="#DejaVuSans-122" />
          <use
             height="100%"
             width="100%"
             y="0"
             style="stroke-linecap:butt;stroke-linejoin:round"
             id="use314"
             xlink:href="#DejaVuSans-32"
             x="52.490234" />
          <use
             height="100%"
             width="100%"
             y="0"
             style="stroke-linecap:butt;stroke-linejoin:round"
             id="use316"
             xlink:href="#DejaVuSans-97"
             x="84.277344" />
          <use
             height="100%"
             width="100%"
             y="0"
             style="stroke-linecap:butt;stroke-linejoin:round"
             id="use318"
             xlink:href="#DejaVuSans-120"
             x="145.55664" />
          <use
             height="100%"
             width="100%"
             y="0"
             style="stroke-linecap:butt;stroke-linejoin:round"
             id="use320"
             xlink:href="#DejaVuSans-105"
             x="204.73633" />
          <use
             height="100%"
             width="100%"
             y="0"
             style="stroke-linecap:butt;stroke-linejoin:round"
             id="use322"
             xlink:href="#DejaVuSans-115"
             x="232.51953" />
        </g>
      </g>
    </g>
    <g
       style="stroke-linecap:butt;stroke-linejoin:round"
       id="line2d_17">
      <path
         inkscape:connector-curvature="0"
         id="path328"
         style="fill:none;stroke:#1f77b4;stroke-width:1.5;stroke-linecap:square;stroke-linejoin:round"
         d="m 64.047442,165.6 h 0.07416 l 0.06062,-1.81813 0.03075,1.81813 0.108645,-2.55832 3.97e-4,6e-5 0.08915,2.55826 0.0094,-3.08055 4.04e-4,1.7e-4 0.0687,3.08038 0.02848,-1.12409 0.112993,-2.67394 -0.05741,3.79803 0.05785,-3.79792 0.12675,3.79792 v 0 l 0.0081,-4.30207 0.08968,4.30207 0.187025,-4.99862 3.15e-4,2.2e-4 0.122943,4.9984 -0.04968,-5.32014 0.04968,5.32014 0.05175,-5.5021 0.0604,2.25761 0.005,3.24449 -5.88e-4,-4.63904 0.102613,0.23899 2.87e-4,-2.3e-4 v 0 l 0.112373,4.40028 -0.08817,-5.98812 0.08817,5.98812 0.0754,-6.21199 0.03421,4.40044 0.07166,1.81155 -0.04634,-6.48837 0.06579,5.68892 0.065,-5.86246 -0.01053,6.66191 0.03969,-5.79645 0.09275,5.79645 -0.01312,-6.96959 0.04067,4.37896 0.08063,-4.55646 -0.05989,7.14709 h 0.08707 0.0086 v 0 l 0.05688,-5.31339 0.0444,3.60803 0.114531,-5.92177 0.01203,2.57595 0.01276,2.5235 0.0065,-4.66115 0.08398,2.80585 0.05783,-3.43566 -0.03346,4.73301 0.08361,-3.3942 0.0054,3.02291 0.04584,-4.64647 0.05205,4.22975 0.04101,-0.21226 v 0 l 0.04048,-4.16039 0.07239,2.29126 0.07552,1.3354 v 0 l 0.01077,-3.94768 0.08867,0.16645 0.04254,-0.3247 0.01426,0.34284 4.06e-4,-5.6e-4 0.02591,3.29058 0.08113,-0.78499 0.03162,0.4527 0.04861,-0.81719 h 6.9e-5 l 0.09414,-2.93491 -0.08487,3.6217 0.08507,-3.62142 0.08683,3.23612 0.05881,-0.38982 0.04314,-3.02542 0.06546,3.01086 0.04839,-0.0651 0.163081,-3.35224 0.01542,0.24027 0.02433,2.69336 0.0526,-1.25489 0.04687,0.8346 0.05437,-2.8222 0.02962,2.87437 0.03167,-2.7775 0.04214,2.65954 0.03668,-2.89914 1.99e-4,2.8e-4 0.07517,2.62299 0.03844,-0.43658 0.07697,0.30394 0.0217,-0.16679 0.01294,-2.50687 0.101564,1.74559 0.02818,-2.00913 0.03862,2.58287 0.03799,-1.43054 0.04188,1.3147 v 0 l 0.06521,-2.61066 0.05808,2.10958 10e-4,3.3e-4 0.0064,0.22432 0.02838,-1.62624 2.27e-4,2.8e-4 0.05666,-0.19848 2.28e-4,2.8e-4 0.03272,-0.79761 0.0015,2.50074 0.03338,-2.11862 0.127681,1.75391 -0.03623,-2.22799 0.03623,2.22799 0.04385,-0.44735 0.01532,0.47162 v 0 l 0.0038,-2.21571 0.09458,2.08452 0.20016,-2.56702 1.2e-4,2.8e-4 0.07231,2.18128 0.01731,-0.029 0.133466,-1.35867 2.23e-4,2.8e-4 0.08211,1.06472 v 0 l 0.08439,-2.27341 0.07075,0.66676 0.04339,1.32859 0.01759,-1.50314 2.29e-4,2.8e-4 0.09052,-0.4599 0.02327,0.0559 0.06967,1.6827 v 0 l 0.08332,-2.16945 4e-5,3.4e-4 0.113757,1.92058 0.05004,-0.0615 0.198655,-0.55716 6.8e-5,2.8e-4 0.03006,-1.67244 0.08065,1.87466 h 5.5e-5 l 0.001,7.2e-4 v 0 l 0.08253,-0.1246 7e-6,1.1e-4 0.02823,-1.03648 0.01942,0.59427 0.105271,0.13185 v 0 l 0.08846,-1.78136 -0.0048,1.85898 0.04572,-1.28865 0.06293,0.54578 v 0 l 0.05115,-0.7471 0.02077,1.23095 v 0 l 0.02178,0.0296 v 0 l 0.06172,-1.60051 1.55e-4,2.8e-4 0.173136,-0.41482 7.9e-5,3.3e-4 0.0965,1.56983 v 0 l 0.05578,-1.4801 0.0011,1.5278 h 5.6e-5 l 0.08262,-0.11455 6e-6,1.6e-4 0.119942,-0.90563 7.4e-5,3.4e-4 0.07672,-0.96272 0.0012,1.54103 0.03613,-1.38993 0.01397,1.50209 0.03461,-0.51197 0.0752,-0.51531 1.5e-4,2.8e-4 0.114569,0.79699 v 0 l 0.101114,-1.68812 7.3e-5,2.8e-4 0.09685,0.41682 0.0021,-0.001 0.01354,-0.53947 0.06887,0.99927 0.03062,-0.63417 0.0988,1.0708 -0.01728,-1.28457 0.01728,1.28457 0.07767,-0.10195 v 0 l 0.08776,-1.59136 3.8e-5,2.8e-4 0.04086,1.14502 0.06821,-0.33915 0.05597,0.4378 1.2e-5,-2.8e-4 0.01769,-1.15718 0.0028,1.29378 v 0 l 0.21571,-1.61825 7.1e-5,2.8e-4 0.01759,1.40097 0.04272,-1.51352 4.1e-5,2.8e-4 0.07112,0.13955 0.0017,-10e-4 0.08148,0.7874 9.94e-4,-1.1e-4 0.07106,-0.44975 1e-4,2.8e-4 0.161992,0.68277 0.01819,-0.11395 0.0017,-1.29076 0.08711,0.41303 0.03675,-0.54857 0.0054,1.38741 6.2e-5,-1.7e-4 0.204487,-1.4051 5.7e-5,2.3e-4 0.0094,1.26576 0.08105,-1.15478 0.02746,-0.28603 3.6e-5,2.3e-4 0.172652,1.21766 0.01148,-0.21087 0.005,-1.1646 0.02179,1.33245 0.01616,-0.57719 0.277855,-0.94436 3.8e-5,2.2e-4 0.161984,1.18447 0.0183,-0.10725 0.05289,-1.03152 0.02807,0.67563 0.04579,0.32604 6.2e-5,-1.7e-4 0.10342,-1.25723 0.02289,0.4661 0.108882,0.65347 0.01635,-0.1525 0.01085,-1.12638 0.04528,0.13995 0.159764,0.51386 0.0017,-9.5e-4 0.02989,0.43786 2.79e-4,-0.001 0.09987,-1.25578 0.07414,0.0515 0.148763,-0.22867 0.0803,0.96825 0.01276,-0.34937 0.119415,-0.63271 1.2e-5,2.2e-4 0.0018,1.07209 0.03653,-1.17845 0.0058,0.23291 0.107351,0.81602 7e-5,-1.1e-4 0.172569,-1.24138 0.04565,1.13084 0.0938,-0.42213 0.09063,-0.75452 1.6e-5,2.2e-4 0.08616,1.00133 0.01306,-1.1256 0.03834,0.86105 0.170613,-0.8029 -0.125142,0.98916 0.125159,-0.98894 0.119401,0.43005 0.0021,-0.001 0.109393,-0.68266 1.9e-5,2.8e-4 0.08578,0.2083 0.004,-0.002 0.02556,0.75196 0.03771,-1.09446 0.01752,0.14045 0.111438,0.82378 0.0613,-0.28235 0.0254,0.0918 1.11e-4,-2.8e-4 0.12341,-0.37832 v 0 l 0.004,0.47407 0.02259,-1.02649 0.05273,0.0582 0.160663,-0.20813 3.7e-5,1.7e-4 0.03389,1.0169 0.105996,-0.0796 0.07746,-0.94832 0.03609,0.5705 0.14012,-0.73366 0.110471,0.70766 1.01e-4,-2.2e-4 0.0499,-0.81279 0.01206,0.93376 0.04064,-0.0885 0.01639,0.10781 0.01915,-0.59779 v 0 l 0.01409,-0.20378 3.1e-5,2.2e-4 0.146299,-0.19719 1.5e-5,2.2e-4 0.117707,0.18604 0.08884,0.6047 10e-4,-0.001 0.02299,-0.96222 0.06646,0.12421 0.184385,0.69019 0.01227,-0.16567 0.06583,-0.76267 0.04471,0.20478 0.07523,0.53474 2.87e-4,-9e-4 0.17004,-0.92215 0.196915,0.79911 8.17e-4,-0.001 0.105697,-0.82662 8e-6,2.2e-4 0.06035,-0.10373 0.1656,0.58255 1.34e-4,-2.2e-4 0.06813,-0.72306 0.09876,0.83103 0.0045,-0.78594 0.122761,0.19725 v 0 l 0.166906,-0.38993 2.5e-5,2.2e-4 0.102029,0.79103 0.02342,-0.0102 0.114409,-0.90769 0.07648,0.0377 0.01802,0.73444 0.02194,-0.12672 0.125642,-0.14436 0.108597,0.10318 5.39e-4,-8.4e-4 0.07447,-0.76708 2.9e-5,1.7e-4 0.299277,0.65771 0.0011,-0.001 0.04486,-0.75921 0.04248,0.0598 0.247313,-0.22102 3.3e-5,1.6e-4 0.0024,0.51258 0.0031,-0.1607 0.168489,0.35226 0.0014,-0.001 0.01523,-0.6792 9e-6,1.7e-4 0.122699,0.62658 0.02344,-0.008 0.0473,-0.76245 0.29337,-0.14737 0.142661,0.66447 0.0012,-0.001 0.206357,-0.77205 1.9e-5,1.1e-4 0.05102,0.62072 0.0058,-0.14101 0.238771,-0.61268 0.02071,0.0579 0.121531,0.59577 0.0014,-0.001 0.242217,-0.77702 6.2e-5,1.7e-4 0.0099,0.68723 0.002,-0.001 0.200848,-0.12589 v 0 l 0.133792,-0.647 1e-5,1.7e-4 0.370731,-0.17047 2.9e-5,1.7e-4 0.01991,0.27353 0.04339,-0.1164 0.14801,0.4031 0.0193,-0.26014 0.08901,-0.37922 1.4e-5,1.2e-4 0.0579,0.47999 5.69e-4,-6.7e-4 0.179448,-0.13565 0.0075,0.12237 0.03632,0.0416 1.6e-5,-5e-5 0.08913,-0.66458 3.5e-5,1.1e-4 0.167687,0.58272 0.0027,-0.002 0.115403,-0.65164 5.6e-5,1.7e-4 0.03105,0.61285 0.004,-0.002 0.141146,-0.55336 0.227668,-0.2111 0.0441,0.56029 0.07893,-0.0739 0.237197,-0.58149 2.4e-5,1.6e-4 0.134175,0.51677 0.0021,-0.001 0.261774,-0.55365 0.133684,0.43485 0.04422,-0.1179 0.152785,-0.50577 6.7e-5,1.1e-4 0.06868,0.54728 0.0034,-0.002 0.143644,-0.0375 v 6e-5 l 0.118619,-0.53434 0.03129,0.22152 0.262004,0.1279 0.106827,-0.5421 7.3e-5,5e-5 0.353789,0.41404 v -6e-5 l 0.03193,-0.45956 0.123346,0.0833 0.199292,-0.24385 1.18e-4,1.1e-4 0.05078,0.51024 0.08136,-0.29759 0.189912,0.22795 v 0 l 0.0016,0.018 0.04548,-0.13911 0.02644,0.10898 0.04593,-0.48814 0.44819,0.29228 0.279692,-0.4921 0.178293,0.37788 0.0034,-0.001 0.0047,-0.13866 v 0 l 0.267947,-0.27013 0.145246,0.30612 7.8e-5,-5e-5 0.180598,-0.4767 0.01421,0.45772 0.08314,-0.0344 0.122733,-0.40221 0.204424,0.17649 v 0 l 0.227491,0.0282 0.309197,-0.39596 0.0031,0.16779 0.007,-0.002 0.151344,0.1231 v -6e-5 l 0.340724,-0.32007 v 0 l 0.0073,0.24513 0.0048,-0.002 0.115057,-0.42431 0.07532,0.0378 5.62e-4,0.37837 0.08432,-0.0383 0.615916,-0.54952 0.07938,0.29858 v 0 l 0.05601,-0.28318 0.361406,-0.002 0.421022,0.0471 0.01615,-0.22108 0.580693,0.16762 0.270364,-0.34495 0.06937,0.21834 8.5e-5,-1.1e-4 0.161105,0.032 0.400283,-0.0731 0.180053,-0.33742 0.0085,0.1232 0.04338,0.19151 0.07758,-0.0232 0.306379,-0.3897 4e-5,5e-5 0.0092,0.25261 0.0025,-2.3e-4 0.413158,-0.31515 0.624403,0.13068 v 0 l 0.03553,-0.20975 0.0441,0.0538 0.125107,-0.12153 0.517178,0.10909 v 0 l 0.185412,-0.19664 0.313035,0.1659 v 0 l 0.28306,-0.21723 0.14408,0.15166 0.182719,-0.2554 0.183404,0.20663 v -5e-5 l 0.392548,-0.25523 0.192844,0.0599 0.113998,-0.15161 0.337696,0.12879 v 0 l 0.289192,-0.24022 v 5e-5 l 0.228324,-0.0176 0.102721,0.12968 0.111325,-0.0781 0.19456,0.0736 v 0 l 0.11565,-0.16857 0.26851,0.0338 v 0 l 0.10144,-0.11779 0.0793,0.17705 0.0494,-0.12153 0.28199,-0.0852 0.12426,0.14742 v 0 l 0.29148,-0.0358 v 6e-5 l 0.076,-0.13945 0.0493,0.12617 0.45716,-0.23459 0.23205,0.0997 0.32116,-0.19854 0.34039,0.084 v 0 l 0.0614,-0.10836 0.24802,0.10473 0.25804,-0.0991 0.42293,-0.11902 0.11729,0.12538 0.77057,-0.22844 0.0107,0.0773 0.0169,0.0643 0.14375,-0.0141 v 0 l 0.26241,-0.15211 0.003,0.0311 0.21252,0.0338 2.39487,-0.28994 0.11174,0.0404 0.20413,-0.13353 0.29593,0.0881 2.63771,-0.29926 0.17134,0.0348 v 0 l 0.19646,-0.10568 0.50938,0.047 0.63613,-0.12728 0.56668,-0.0321 8.3959,-0.46866 7.58022,-0.32297 10.33268,-0.28871 3.83275,-0.0713 3.49963,-0.0977 4.13341,-0.0784 4.15477,-0.0772 0.0835,0.0482 4.0485,-0.12621 2.07352,0.008 0.4626,-0.0953 7.57522,-0.0717 0.83505,-0.14178 3.17169,0.0215 1.03421,-0.15591 0.90136,0.11991 0.29497,-0.0937 1.36917,-0.0118 1.63942,-0.18218 2.20662,0.0618 v 0 l 1.99689,-0.26572 v 0 l 0.901,0.14168 0.24884,-0.10714 0.67342,0.0462 2.36988,-0.34958 v 0 l 1.46892,0.0828 2.72095,-0.4117 0.46466,0.19179 0.7382,-0.0893 2.97837,-0.53613 v 0 l 0.75219,0.16171 3.41461,-0.70012 v 0 l 0.0523,0.24563 -0.0489,-0.24653 0.0491,0.24642 3.82294,-0.91183 0.008,0.20506 0.0554,-0.22375 6e-5,5e-5 0.20116,-0.0578 v 0 l 3.73343,-0.8183 v 0 l 0.37001,-0.10195 v 0 l 4.01281,-1.24551 v 0 l 1.62068,-1.48763 v 0 h 15.78262 v 0 l 1.80006,1.52211 9.4e-4,-0.002 1.47861,0.43987 v 0 l 3.79034,1.18954 2.86949,0.56258 v 0 l 0.0542,0.22286 0.0106,-0.20395 0.93121,0.23822 v 0 l 2.93706,0.62457 0.001,-0.19849 0.003,0.19921 0.10498,-0.17326 3.31342,0.67546 1.38655,-0.0378 v 0 l 3.0789,0.50119 0.0117,-0.0811 0.71691,-0.0619 0.38267,0.0529 2.70249,0.29696 v 0 l 1.18394,-0.0129 2.94901,0.35361 1.25552,-0.0942 2.104,0.25288 0.33245,-0.0745 v 0 l 1.69996,0.0142 1.51215,0.19591 v 0 l 2.63539,-0.0388 1.04042,0.15328 1.59499,-0.0252 1.52463,10e-4 0.80797,0.11165 v 0 l 2.31257,0.0784 1.04496,-0.0801 0.98695,0.1193 1.49325,-0.0312 3.01367,0.082 0.22771,0.0421 2.65065,-0.03 0.59591,0.0652 1.68287,0.0499 0.0914,-0.0478 4.14254,0.0767 2.01642,0.0735 3.61431,0.0209 0.33048,0.0387 5.52809,0.11484 19.35616,0.66647 3.2584,0.16796 4.71872,0.3608 0.36126,0.0624 10e-6,-5e-5 0.31025,-0.0649 0.19139,0.10524 0.19699,-0.053 0.54109,0.0927 0.32534,-0.0183 1.13125,0.14073 v -6e-5 l 0.0322,-0.0544 4e-5,5e-5 0.74088,0.17109 v -6e-5 l 0.22131,-0.0812 0.22807,0.0718 2.62977,0.22711 0.38656,0.16416 0.0272,-0.14173 -0.026,0.14201 0.0428,-0.14017 0.27166,0.17331 10e-6,-5e-5 0.25636,-0.005 0.3599,-0.0651 0.0197,-0.0119 4e-5,5e-5 0.64826,0.22834 10e-6,-6e-5 0.26101,-0.10289 0.056,0.10758 0.41169,-0.0124 0.24379,0.12622 v 0 l 0.24361,-0.0981 0.4847,0.24189 v 0 l 0.005,-0.13565 0.0785,0.14001 h 10e-5 l 0.32524,-0.002 v 0 l 0.10486,-0.10786 0.51039,0.14725 v -5e-5 l 0.26996,-0.0335 0.10101,0.16634 1e-5,-6e-5 0.20993,-0.0713 0.10239,0.0768 v 0 l 0.1073,-0.12895 0.30398,0.0831 0.20378,0.17314 10e-6,-5e-5 0.34763,-0.12711 0.11093,0.1511 v 0 l 0.19868,-0.0589 0.47669,0.26388 v 0 l 0.0966,-0.21561 4e-5,1.1e-4 0.1718,0.25389 v 0 l 0.15734,-0.14982 0.26863,0.21522 v 0 l 0.41013,-0.0932 v 0 l 0.0929,0.12427 0.0308,0.0537 10e-5,-2.3e-4 0.48912,-0.16187 0.19737,0.27593 0.27245,-0.005 v 0 l 0.35958,-0.12405 0.0633,0.12382 0.0268,-0.0611 0.31651,0.25105 v 0 l 0.009,-0.25266 0.37731,0.41119 v -6e-5 l 0.0584,-0.31298 -0.0519,0.31471 0.0719,-0.25634 0.16375,0.28017 v 0 l 0.56122,0.0406 v -6e-5 l 0.0755,-0.21689 0.0207,0.0668 0.24184,0.27699 0.37627,-0.14078 0.21253,-0.0255 0.0609,0.29496 v 0 l 0.3794,-0.1203 0.35854,0.002 0.0459,0.28095 5.3e-4,-2.2e-4 0.0833,-0.29741 0.15783,0.27972 0.024,-0.10518 0.0126,0.003 0.50139,0.40968 v 0 l 0.0759,-0.41621 0.005,0.001 0.11514,0.42486 0.02,-0.24222 0.33207,0.31861 v 0 l 0.15435,-0.12292 0.003,-0.16774 0.0103,0.002 0.15038,0.13833 v 0 l 0.003,-0.16723 0.01,0.17008 3e-5,-6e-5 0.13936,0.25367 0.22644,-0.0291 v 0 l 0.21233,-0.17432 0.19567,0.43412 v 0 l 0.0143,-0.45772 0.006,0.001 0.17922,0.47692 0.15095,-0.30523 3.5e-4,1.7e-4 0.0686,0.14553 0.19249,0.12276 0.005,0.13933 0.10278,-0.0252 0.0755,-0.35266 0.006,0.002 0.12726,0.13219 0.14917,0.35946 7e-5,-5e-5 0.45163,-0.29178 0.007,0.11048 0.10508,0.40617 0.002,-0.018 0.19905,-0.22555 v 1.2e-4 l 0.0722,0.29507 5e-5,-6e-5 0.0509,-0.51029 0.20931,0.24664 3e-5,-6e-5 0.11975,-0.0841 0.0282,0.45901 0.0916,-0.0294 0.0169,-0.0498 0.24308,-0.33603 0.10839,0.5431 10e-6,-5e-5 0.26518,-0.12756 0.0261,-0.22292 0.007,0.002 0.18278,0.56235 v 0 l 0.0761,0.009 v 0 l 0.0687,-0.54739 8e-4,2.7e-4 0.19621,0.6234 4e-5,-5e-5 0.14034,-0.43279 1.1e-4,1.1e-4 0.25705,0.55276 2e-5,-6e-5 0.13418,-0.51687 0.0818,0.127 0.007,0.002 0.22758,0.52636 10e-6,-5e-5 0.0442,-0.56035 0.23444,0.21349 0.14879,0.55198 v 0 l 0.0205,-0.61191 0.002,7.3e-4 0.11642,0.65258 5e-5,-5e-5 0.16771,-0.58278 0.0631,0.17968 0.007,0.002 0.0212,0.48406 0.0427,-0.16528 0.17901,0.13627 0.0579,-0.48011 0.002,8.4e-4 0.10623,0.63852 3e-5,-6e-5 0.21135,-0.56034 7.7e-4,3.4e-4 0.3724,0.17102 0.13243,0.64695 v 0 l 0.20178,0.12633 v 0 l 0.01,-0.6874 10e-4,6.1e-4 0.24246,0.77763 0.14222,-0.65364 0.24457,0.75369 v 0 l 0.051,-0.62083 0.002,7.3e-4 0.20595,0.77244 v 0 l 0.10309,-0.23654 1.2e-4,5e-5 0.0395,-0.42798 0.0784,0.11082 0.21692,0.0375 0.0688,0.76909 v 0 l 0.12272,-0.62675 0.003,0.002 0.0132,0.67908 0.057,-0.0225 0.11706,-0.68176 7.9e-4,3.3e-4 0.25003,0.22208 0.0413,-0.06 0.0437,0.75933 v 0 l 0.19058,-0.28369 0.10876,-0.37419 0.0654,0.16729 0.004,0.002 0.006,0.59896 0.10961,-0.10301 h 1.2e-4 l 0.14645,0.27091 v 0 l 0.0946,-0.7721 0.13774,0.91791 v 0 l 0.10206,-0.79125 0.001,8.4e-4 0.16962,0.39082 5e-5,-1.1e-4 0.12121,-0.19787 1.5e-4,2.3e-4 0.002,0.78471 0.0987,-0.83103 4e-4,2.3e-4 0.0679,0.72305 0.10641,-0.0488 0.002,2.8e-4 0.0576,-0.53406 0.002,0.001 0.14515,0.27219 v -1.1e-4 l 0.0199,0.65827 v 0 l 0.19699,-0.79911 6.8e-4,3.4e-4 0.16957,0.92271 v 0 l 0.11995,-0.73952 0.002,0.001 0.0759,0.92706 0.0449,-0.009 0.20601,-0.80547 9.8e-4,7.3e-4 0.0229,0.96288 0.0936,-0.60258 0.11505,-0.18727 1.4e-4,2.3e-4 0.16217,0.40153 4e-5,-1.1e-4 0.0151,0.59578 0.0691,-0.95307 4e-5,2.3e-4 0.05,0.81278 6.8e-4,-3.3e-4 0.10979,-0.70733 0.001,9e-4 0.14035,0.73343 0.0144,-0.4459 0.0201,-0.12527 0.002,0.001 0.18113,1.02645 v 0 l 0.034,-1.01707 2.8e-4,1.7e-4 0.16281,0.20925 2e-5,-1.7e-4 0.0728,0.96712 -0.0226,-1.02649 0.0294,0.5537 0.20746,0.56788 v 0 l 0.12896,-0.96423 6.2e-4,5.6e-4 0.0371,1.0939 0.0296,-0.75 0.0857,-0.20842 0.002,0.001 0.10975,0.68249 5e-5,-5e-5 0.11941,-0.43022 0.003,0.002 0.12243,0.98743 0.0464,-0.1862 0.0374,-0.86111 0.0131,1.1256 0.088,-1.00027 0.1826,1.17537 v 0 l 0.0457,-1.13084 0.17265,1.24149 2e-5,-0.001 0.11311,-1.04793 0.001,0.001 0.0353,1.17744 0.004,-1.07114 0.1303,0.98091 0.0332,-0.0969 0.0472,-0.87132 2.9e-4,1.7e-4 0.16027,0.4021 0.0636,-0.22398 0.0988,1.25594 v 0 l 0.10708,-0.7336 0.003,0.002 0.12628,-0.35919 5.9e-4,6.7e-4 0.0266,1.27821 0.0727,-0.20004 0.059,-0.91953 10e-4,8.9e-4 0.10215,1.25651 0.0473,-0.32549 0.0266,-0.67618 0.053,1.03174 4.9e-4,-7.2e-4 0.0177,0.10775 2.3e-4,-0.001 0.16179,-1.18357 0.0987,0.14173 0.18087,0.80341 1.3e-4,-6e-5 0.0525,0.61949 -0.0165,-1.37547 0.0258,1.05127 0.16339,-0.89369 0.0301,0.2876 0.0571,0.10713 1.3e-4,-2.8e-4 0.0211,1.04636 0.009,-1.26599 10e-4,0.001 0.20306,1.40421 5.7e-4,-8.4e-4 0.005,-1.38657 0.0395,0.55013 0.0844,-0.41459 10e-4,0.001 0.0189,1.40365 0.0479,-0.23157 0.11416,-0.45148 0.002,0.001 0.07,0.44847 1.2e-4,-6e-5 0.15418,-0.92594 5.6e-4,6.7e-4 0.0422,1.51285 0.0188,-1.40036 0.21457,1.61736 5.7e-4,-10e-4 0.002,-1.29272 0.0751,0.7201 0.0667,0.33871 8.3e-4,-2.8e-4 0.0401,-1.14502 0.0802,0.14882 0.0852,1.54449 0.0214,-0.0837 0.0111,-1.11762 0.0971,0.76463 0.0688,-0.99921 0.0157,0.54081 0.0968,-0.41699 0.0357,0.13598 0.0654,1.55214 0.0353,-0.0185 0.0794,-0.7788 0.002,0.001 0.10809,1.026 7.9e-4,-9.5e-4 0.0505,-1.65224 0.0485,0.0968 0.14824,1.77125 9.6e-4,-7.2e-4 0.0817,0.11511 9e-4,-7.2e-4 2.3e-4,-1.52708 0.10355,0.91774 0.0488,-1.0078 0.0528,0.12415 0.13262,0.37621 1.2e-4,-1.7e-4 0.0495,1.51486 0.0442,-1.25907 0.0504,0.74571 0.0639,-0.54466 0.0391,-0.57151 3.9e-4,3.9e-4 0.004,1.85859 0.0846,-0.0781 0.10527,-0.13163 0.0185,-0.59399 0.0282,1.03648 10e-4,-6.7e-4 0.0815,0.12516 0.0439,-0.0623 0.0379,-1.81305 0.031,1.67205 0.24776,0.61882 10e-4,-6.7e-4 6e-4,-1.81741 0.0556,1.63807 0.0565,-1.74091 0.0292,0.0955 0.0541,2.07392 0.0632,-0.1025 0.0296,-1.63606 0.0237,0.28614 0.0681,0.17482 2e-4,-1.1e-4 0.10565,1.64739 0.001,-6.7e-4 0.0237,-2.14016 0.0843,2.27341 10e-4,-7.3e-4 0.0811,-1.06427 0.001,8.3e-4 0.14976,1.38686 0.003,-0.27242 0.0695,-1.90914 2.3e-4,2.2e-4 0.12026,2.25951 0.001,-4.4e-4 0.035,-2.12085 0.0434,2.42858 10e-4,-6.7e-4 0.0718,0.0745 v -6e-5 l 0.12073,-2.19484 -0.0954,2.25226 0.0957,-2.25186 0.12452,2.5923 10e-4,-6.2e-4 2.2e-4,-2.50012 0.0908,0.99648 0.0274,1.62529 0.0656,-2.33423 3.1e-4,4.5e-4 0.14476,2.72605 10e-4,-6.1e-4 0.0373,-2.58226 0.0292,2.00897 0.0854,0.28084 1.2e-4,-6e-5 0.0151,-2.02621 0.0346,2.67366 10e-4,-5.6e-4 0.0767,-0.30366 v 0 l 0.0373,0.43686 10e-4,-4.5e-4 0.074,-2.62282 2e-4,2.8e-4 0.11029,3.01682 0.001,-5e-4 0.0283,-2.87387 0.0557,2.82175 0.0834,-2.22541 0.004,2.62399 0.002,-0.14123 0.009,0.16339 0.002,-1.58802 0.0129,0.82428 0.025,-2.16989 0.0712,3.08038 10e-4,-4.5e-4 0.0661,-2.95505 0.0244,3.22736 0.002,-4.5e-4 0.0484,0.0652 0.0631,-0.20356 v 0 l 9e-4,-2.80691 0.10195,3.41524 0.001,-3.9e-4 0.0144,-0.12884 v 0 l 0.0712,-3.10717 0.023,3.40882 0.0205,-1.4498 0.0993,1.79308 -0.0603,-3.50307 0.0617,3.50268 0.0376,-2.03798 0.007,1.75999 0.10734,-3.02219 -0.0406,3.63286 0.0407,-3.63258 0.0427,0.32492 0.009,-0.0781 0.0905,3.85879 -0.0108,-3.94768 0.0123,3.94735 0.0743,-1.33524 0.02,1.67707 10e-4,-0.87824 0.10874,1.2478 -0.0578,-4.33772 0.0594,4.33744 0.0456,0.10759 v 0 l 0.0286,-4.30213 0.0459,4.64647 0.0278,-0.52117 0.0174,0.65023 -0.002,-0.8019 0.0109,0.61391 0.002,-4.30279 0.0656,4.87474 0.0403,-1.92599 0.11767,2.79458 -0.0505,-5.55182 0.0509,5.45958 0.0976,0.86786 -0.094,-6.06864 0.0965,5.24743 0.10063,-5.02619 -0.0429,7.14709 0.0518,-3.77705 0.048,-1.67405 0.0527,5.4511 0.0116,-6.96959 0.10891,0.30802 0.0856,6.66157 0.008,-2.90076 0.0376,-3.58761 0.0396,6.48837 0.034,-4.33856 0.0624,4.33856 0.0228,-4.38114 0.0564,3.46345 0.008,-5.07043 0.0157,5.98812 0.0871,-0.92494 0.0238,0.92494 1.2e-4,-2.1079 v 0 l 0.0652,-3.3942 -0.0649,5.5021 0.10123,-2.12537 0.0651,-3.19477 -0.0497,5.32014 0.0931,-4.97351 0.0301,-0.0251 0.0865,4.99862 0.0273,-4.81375 0.0738,4.81375 0.0891,-4.30207 0.0399,0.61525 0.0632,3.68682 0.0322,-3.79803 10e-6,2.3e-4 0.14196,3.7978 v 0 l 0.0686,-3.08055 0.0758,0.5378 3.8e-4,-2.2e-4 v 0 l 0.0738,2.54297 -0.051,-2.55832 0.0678,1.34082 0.091,1.2175 -0.0194,-1.81813 0.0194,1.81813 0.0375,-1.28859 0.0587,1.28859 h 0.0192 v 0"
         clip-path="url(#pf26f634594)" />
    </g>
    <g
       style="stroke-linecap:butt;stroke-linejoin:round"
       id="line2d_18">
      <path
         inkscape:connector-curvature="0"
         id="path331"
         style="fill:none;stroke:#ff7f0e;stroke-width:1.5;stroke-linecap:square;stroke-linejoin:round"
         d="m 64.742272,165.6 h 0.05881 l 0.08122,-1.86796 0.0027,0.56492 0.07788,1.30304 0.06229,-2.64118 0.03692,0.0452 0.07756,2.59598 -0.0083,-3.16911 0.04203,1.99564 0.03281,1.17347 0.0043,-2.48316 0.02769,1.31973 0.108781,-2.75736 -0.0716,3.92079 0.07193,-3.92062 0.0752,3.92062 0.02679,-1.116 0.04228,-3.30944 0.0051,4.42544 0.07067,-2.22592 0.08956,2.22592 0.0065,-4.9426 0.0013,1.46805 0.07201,3.47455 0.02719,-0.9577 0.0958,-4.50066 -0.04995,5.45836 0.05062,-5.45813 0.08058,5.45813 0.02127,-5.66214 6.68e-4,2.8e-4 0.133563,5.66186 0.06809,-6.14871 0.04144,4.73708 0.04325,1.41163 0.0178,-4.28025 0.04726,2.90651 0.08476,-5.2813 0.02168,4.29526 0.111988,-4.50044 0.0045,3.97826 0.03486,-0.13403 0.07726,-4.1287 0.03407,3.23668 3.4e-4,6e-5 0.09097,-3.43472 -0.05331,3.70568 0.05826,-0.19552 0.194946,-0.99815 1.75e-4,1.1e-4 0.06374,-2.99328 -0.03782,3.23227 0.08613,-2.2243 0.0088,1.89899 0.106189,-0.22616 0.123763,-3.1618 5.13e-4,3.9e-4 0.04867,2.73158 0.04741,-0.18442 0.04225,-2.71874 0.05618,1.95054 0.02171,0.54768 0.05915,-0.85206 8.65e-4,2.2e-4 0.03059,-1.95038 0.06048,2.44968 0.04068,-2.39985 0.03033,2.27223 0.003,-2.49476 0.0331,0.47352 0.06664,1.74989 0.102763,-0.15574 0.106628,-2.51965 0.0061,1.78515 0.09262,0.32922 0.10933,-2.34159 3.88e-4,4.5e-4 0.08634,1.95635 0.04548,-1.17197 0.0034,-1.0251 0.0091,2.13909 0.04884,-1.46302 0.06768,-0.20026 2.73e-4,2.7e-4 0.0069,1.37162 0.01285,-1.99725 0.07154,0.22666 0.08368,1.56157 0.02882,-0.0285 0.115017,-2.05824 3.41e-4,4.5e-4 0.07606,1.71077 -0.02837,-1.86076 0.09198,1.15706 3.79e-4,2.8e-4 0.0034,0.63919 0.07105,-0.37096 0.204388,-1.87398 -0.139685,1.96817 0.140038,-1.96773 0.03982,1.76646 0.03624,-0.0354 0.06183,-0.21276 2.48e-4,2.2e-4 0.06624,-1.70503 0.05848,0.49188 0.01672,1.10043 0.06632,-1.28663 0.02458,1.02326 0.01411,-1.57931 0.027,1.69972 0.06711,-1.5244 0.03923,-0.28826 3.11e-4,5e-4 0.110026,1.457 0.07214,-1.55727 0.01354,1.50431 0.03724,-0.0325 0.01559,-1.6672 0.02671,1.30974 0.134144,0.0206 1.14e-4,-1.4787 5e-5,1.47876 2.62e-4,-1.47826 0.119667,1.44126 0.0022,-1.48852 0.06797,1.37006 0.189309,-0.62747 2.49e-4,3.9e-4 0.09963,-1.12164 -0.03328,1.26147 0.03354,-1.26097 0.06578,1.369 0.120472,-0.15222 0.111104,-1.40019 0.01224,0.0418 0.06989,1.15277 -0.03527,-1.40398 0.07259,1.26169 0.171633,-1.35181 2.58e-4,4.5e-4 0.03561,1.23033 0.06138,-0.21427 0.07082,-1.30326 9.42e-4,0.0278 0.114489,-0.0212 0.07224,0.97667 0.01606,-0.56113 0.05805,0.68919 0.03579,-0.50985 0.08313,0.37431 3e-5,-1.7e-4 0.07079,-1.3541 0.06283,0.0134 0.06267,1.15907 0.039,-0.13615 0.210361,-1.08297 1.37e-4,3.4e-4 0.0236,0.95345 0.05223,-1.29177 0.0018,0.0513 0.05571,0.9991 1.09e-4,-3.3e-4 0.202425,-0.41465 0.05343,-0.74895 0.0087,0.87193 0.0041,-0.41264 0.02576,0.57407 0.0125,-0.0735 0.08776,-1.21275 1.56e-4,4.4e-4 0.03905,1.14385 9e-5,-1.7e-4 0.140136,-1.16695 0.05092,0.34948 5.58e-4,0.66195 0.06078,-0.28664 0.05418,0.0924 1e-4,-2.8e-4 0.08437,-1.10183 0.06117,0.33932 0.04072,0.69254 -0.02425,-1.11416 0.02435,1.11404 0.391507,-1.40716 0.01401,0.16031 0.021,0.89448 0.08041,-0.12544 0.06368,-0.007 0.194815,-0.14095 0.106645,-1.12884 0.0044,0.82205 0.07434,0.0709 1.53e-4,-2.7e-4 0.133704,-0.018 0.0302,-0.91914 0.03035,0.84381 0.08778,-0.62474 2.6e-5,2.8e-4 0.08734,0.3988 2.31e-4,-3.9e-4 0.101092,-0.95077 0.0347,0.0808 0.0688,0.84252 0.06889,-0.21711 0.0766,-0.53328 0.0275,0.56692 0.0015,-0.2021 0.06957,0.19128 1.11e-4,-1.1e-4 0.04353,-0.9645 0.06237,0.90273 0.08262,-1.01685 0.05018,0.49651 0.05998,-0.37894 4.6e-5,3.4e-4 0.104447,0.60348 1.86e-4,-2.8e-4 0.138113,-0.0167 0.02416,-0.92979 0.08661,0.0963 0.108767,0.48869 2.46e-4,-3.9e-4 0.02499,0.0647 2.42e-4,-3.4e-4 0.214261,-0.0274 0.149897,-0.98247 1.09e-4,3.9e-4 0.0323,0.80793 0.07417,-0.51839 0.06348,0.14129 1.24e-4,-3.4e-4 0.01189,0.33302 0.08158,-0.80994 1.89e-4,6e-5 0.09004,0.54924 2.58e-4,-2.8e-4 0.05935,-0.71776 0.04587,0.56598 0.05955,0.11629 2.52e-4,-2.8e-4 0.05795,-0.8057 0.04916,0.0646 0.03337,0.72725 0.0908,-0.43669 8.95e-4,-5.1e-4 0.239362,-0.51168 1.03e-4,5e-5 0.115161,0.67825 0.02832,-0.83225 1.98e-4,2.7e-4 0.188055,0.65086 0.0048,-0.13141 0.06894,0.12359 1.28e-4,-1.1e-4 0.129889,-0.84358 0.02315,0.0343 0.404518,0.49495 0.140926,-0.79403 0.0076,0.5797 0.03192,-0.63734 1.47e-4,3.3e-4 0.158686,0.59226 1.53e-4,-2.2e-4 0.120771,0.006 0.0049,-0.64365 0.01815,0.12365 0.173954,-0.12566 0.0106,-0.17253 0.06639,0.3242 0.0012,-6.2e-4 0.02062,0.31857 0.02168,-0.72429 0.02202,0.71547 0.06572,-0.67384 0.1897,0.29345 1.64e-4,-2.8e-4 0.01568,-0.30439 4.7e-5,2.8e-4 0.103791,0.43803 0.03497,-0.0682 0.0764,-0.62714 4.8e-5,3.4e-4 0.04089,0.65827 0.02535,-0.70855 0.05723,0.29044 0.07121,-0.19893 0.312065,0.38452 6.7e-5,-5e-5 0.04151,-0.64583 0.03698,0.0614 0.06013,0.48675 0.0066,-0.6383 0.05319,0.22046 0.146755,0.3429 0.03292,-0.0829 0.228414,-0.65676 0.0366,0.14139 0.0017,-6.7e-4 0.136018,-0.25232 1.48e-4,2.2e-4 0.06403,0.59673 3.3e-5,-1.2e-4 0.0968,-0.57563 0.0052,0.23442 0.145512,-0.21723 1.8e-5,2.2e-4 0.129821,0.24736 8.2e-5,-1.7e-4 0.04633,-0.47078 0.0043,0.55142 0.08492,-0.53775 0.03862,-0.0948 2.31e-4,2.3e-4 0.03509,0.59929 2.5e-5,-6e-5 0.09152,-0.49567 0.142476,0.0563 5.1e-5,-2.3e-4 0.24022,-0.35154 1.27e-4,2.8e-4 0.0014,0.58295 0.04267,-0.48089 0.09937,0.39032 4.4e-5,-5e-5 0.07974,-0.6013 0.05218,0.32313 0.07128,-0.15334 3.9e-5,1.7e-4 0.05236,0.28425 2.3e-5,-1.1e-4 0.0616,-0.49674 0.0066,0.35779 0.211253,-0.48317 9.7e-5,2.2e-4 0.191693,0.47101 0.04843,-0.46961 0.219353,0.0979 0.02176,-0.255 0.15948,0.41325 1e-5,-1.1e-4 0.01037,-0.51124 0.102241,0.37341 0.03556,0.11584 0.02225,-0.20238 h 8.69e-4 l 0.156108,0.13944 4.46e-4,-5e-4 0.193729,-0.5893 0.01901,0.19892 0.245881,-0.32163 7.17e-4,0.50142 0.109119,-0.48105 0.149123,0.3488 0.03275,-0.17582 0.100013,-0.31226 8.9e-5,1.7e-4 0.09537,0.30428 0.255417,0.0476 0.0052,-0.49494 0.10473,0.0155 0.0075,0.11891 0.0028,-8.9e-4 0.151346,0.27107 2.23e-4,-3.9e-4 0.07125,-0.50487 0.07361,0.21053 0.01176,0.24446 0.02301,-0.0507 0.107038,-0.075 0.05555,-0.27582 0.04908,0.19218 0.138114,-0.10418 6.4e-5,1.1e-4 0.02414,-0.27208 0.284795,0.008 0.04857,-0.14943 2.61e-4,1.1e-4 0.09349,0.40935 0.203775,-0.13978 0.06879,-0.35991 0.05012,0.0792 0.0909,0.29189 0.04438,-0.20182 0.01649,-0.0766 1.27e-4,1.1e-4 0.216421,0.19524 0.0054,-0.44829 3.47e-4,5e-5 0.143596,0.40662 7.25e-4,-5.1e-4 0.100944,-0.45901 1.2e-4,1.7e-4 0.399295,0.25741 9e-6,-6e-5 0.01891,-0.30405 0.07728,0.24055 0.089,-0.3906 0.02206,0.3141 0.11596,-0.0855 0.131655,0.0968 1.99e-4,-3.3e-4 0.0046,-0.38514 0.04941,0.0573 0.369615,0.20981 0.09996,-0.35204 0.03511,0.23731 0.219674,0.0314 0.05469,-0.42118 0.028,0.39144 0.302155,-0.42375 0.183876,0.24318 1.72e-4,-2.8e-4 0.06686,-0.22504 2.13e-4,1.1e-4 0.144782,0.0195 0.145914,-0.24496 0.106739,0.33223 0.0045,-0.0431 0.09434,-0.0637 0.02944,-0.22995 0.03141,0.0733 0.274158,0.15474 0.257446,-0.29987 8.7e-5,1.1e-4 0.0067,0.25333 0.05644,-0.41175 0.02804,0.38201 0.102994,-0.34892 0.03968,0.22583 0.359113,-0.25613 4e-6,1.1e-4 0.08779,0.18576 3.91e-4,-2.8e-4 0.240886,-0.3363 9.3e-5,1.1e-4 0.224026,0.22984 0.01355,-0.22309 10e-7,1.1e-4 0.429359,0.12338 0.118759,-0.31617 9.8e-5,1.1e-4 0.05072,0.30261 0.0958,-0.0333 0.374078,-0.33547 0.347436,0.0656 0.01762,-0.1977 1.86e-4,6e-5 0.337608,-0.0278 0.06591,0.20133 9.08e-4,-3.9e-4 0.357751,-0.0708 0.134296,-0.29183 3.07e-4,5e-5 0.03171,0.28782 0.09658,-0.0366 0.34991,-0.25662 0.448124,-0.14743 0.506652,-0.0209 0.330477,-0.0961 0.253099,0.0813 0.53494,-0.27493 0.137461,0.15602 8e-5,-1.7e-4 0.256743,-0.18922 0.257358,0.10234 0.01554,-0.0483 0.140476,-0.16367 8.5e-5,1.2e-4 0.257729,0.14435 0.09882,-0.17331 0.211692,0.13113 0.585189,-0.1539 0.958482,-0.1857 0.173773,0.009 0.345483,-0.17359 0.372861,0.0689 0.0855,-0.10808 0.0431,0.0567 0.39957,-0.1506 0.0302,0.12421 0.16225,-0.126 0.60636,0.0319 0.0662,-0.15139 3e-5,6e-5 0.0993,0.0815 0.0663,-0.0824 1.66781,-0.23498 0.48332,0.0357 6.51505,-0.72194 5.98113,-0.46369 4.5e-4,0.0172 0.60082,-0.0392 1.30921,-0.0936 11.645,-0.53328 3.68433,-0.13219 4.77075,-0.11395 19.03792,-0.42581 2.57135,-0.12309 0.24218,-0.0164 2.64764,0.0199 0.91035,-0.12086 0.001,0.0976 0.021,-0.0995 h 5e-5 l 1.36936,0.0389 15.3358,-0.75174 1.20955,-0.10669 1.75215,-0.0269 1.54705,-0.22415 0.52403,0.0272 1.92504,-0.2285 0.26409,-0.0343 0.20078,0.11517 0.0343,-0.14609 0.74032,-0.10032 0.0451,0.13905 0.063,-0.15485 0.17255,0.0733 1.05534,-0.0797 1.50204,-0.31058 0.14431,0.14212 0.0903,-0.18007 0.54437,-0.0921 0.0581,0.10635 0.0518,-0.1256 0.0842,-0.0147 0.72835,0.081 1.31662,-0.34774 0.0799,0.11031 0.21061,-0.16879 0.80498,-0.16561 0.0324,0.12566 0.01,-0.002 0.21826,-0.17957 0.0565,-0.0125 0.003,0.23503 0.0605,-0.24864 0.10438,-0.0229 1.54226,-0.0754 0.0451,-0.1583 1.30085,-0.34016 0.1044,0.15334 0.0563,-0.19658 0.53974,-0.15072 0.57604,0.0345 1.18006,-0.38803 0.30524,0.0626 0.0203,-0.17215 1.45732,-0.51408 0.074,0.19402 0.001,-5.1e-4 2.27881,-0.97454 1.14152,-0.53474 0.64839,-0.0671 v 1.1e-4 l 2.69303,-1.60777 3.01435,-2.20605 0.37895,-2.59721 v 0 h 15.78262 v 0 l 0.46447,2.63013 1.3e-4,-1.1e-4 1.2497,0.8351 0.27167,0.24575 2.02607,1.45152 2.07433,1.24858 v -5e-5 l 0.89693,0.18029 1.64122,0.76077 1.53588,0.6373 v -6e-5 l 0.1733,-0.1597 5.7e-4,2.8e-4 1.37273,0.4849 0.003,0.16578 0.31916,-0.0573 1.17713,0.38619 0.84516,0.0391 0.26104,0.0738 1e-5,-7.8e-4 0.063,0.19937 0.10178,-0.153 1.3124,0.34222 0.0314,0.15451 1.69808,0.10915 0.004,0.23653 0.077,-0.21912 0.12117,0.0259 0.0971,0.15412 0.0332,-0.126 0.82983,0.1717 0.19272,0.1645 0.0941,-0.10697 1.29974,0.34345 0.85097,-0.0592 0.0261,0.12058 0.0512,-0.10752 0.53126,0.0906 0.0937,0.17979 0.1502,-0.14033 2.57678,0.39182 0.19852,-0.0691 0.0234,0.14859 0.0439,-0.1386 0.72947,0.0988 0.0282,0.14508 0.21621,-0.11299 2.21338,0.26488 0.38626,-0.0419 4.0967,0.42425 0.0309,-0.0952 6.05308,0.45176 0.71781,-0.0776 6.57841,0.36443 0.47238,-0.084 5.62524,0.25138 1.79243,0.0137 0.12046,0.0286 3.20427,0.0496 1.32049,0.0115 2.02208,0.0629 9.94296,0.2338 0.95543,0.015 4.87288,0.10981 7.63489,0.24591 0.40245,0.004 0.87479,0.045 4.97262,0.20641 8.82956,0.49902 0.26653,0.0232 5.03208,0.39674 0.0554,0.0659 0.14525,0.0112 6.16554,0.633 0.0894,0.0656 0.44446,-0.0385 0.8506,0.25166 10e-4,-0.1385 0.0986,0.14843 0.73167,0.0964 0.0347,-0.1236 0.52381,0.20133 v -6e-5 l 0.58472,-0.003 0.13408,0.10802 0.55753,0.004 0.57506,0.1722 0.0675,-0.10262 0.0783,0.0522 0.0573,-0.0562 0.041,0.1054 0.42393,0.17538 0.13218,-0.1506 0.095,0.17275 0.26024,-0.14413 0.1533,0.2116 0.28499,-0.0431 0.22875,0.1299 0.14078,-0.15546 0.53175,0.27426 0.31112,-0.11718 0.54528,0.22627 0.0285,-0.0627 0.21856,-0.0387 0.78601,0.43273 0.12669,-0.25188 -0.032,0.28787 0.0339,-0.28754 0.1339,0.29195 0.3575,0.0708 0.0689,-0.20077 6.3e-4,2.3e-4 0.33585,0.0273 0.0694,0.27102 0.2975,-0.13855 0.32432,0.27258 0.14179,0.0953 0.0512,-0.30266 0.004,0.0589 0.11589,0.25763 0.0464,-0.0946 0.38546,-0.0285 0.0108,0.22259 0.008,-0.0368 0.21716,-0.19296 0.2393,0.33603 0.0912,-0.18503 0.35602,0.25511 0.0391,-0.22571 0.002,6.7e-4 0.10186,0.34881 0.0267,-0.38257 0.0564,0.41175 0.0105,-0.25249 0.25465,0.29936 0.3073,-0.22772 0.12589,0.33603 0.10736,-0.33223 0.1473,0.24541 0.14644,-0.0191 0.0636,0.22432 0.18629,-0.2424 10e-6,6e-5 0.30053,0.42347 0.0269,-0.392 0.0559,0.42179 0.0351,-0.0504 0.0362,0.0584 0.14759,-0.0402 0.0346,-0.23715 0.003,8.3e-4 0.098,0.3516 0.41898,-0.26739 0.004,0.38535 0.1324,-0.0968 10e-6,1.1e-4 0.11563,0.0853 0.022,-0.31405 0.0885,0.39066 1.9e-4,-1.7e-4 0.0791,-0.23983 0.0167,0.30356 2.3e-4,-2.3e-4 0.39989,-0.25718 0.10102,0.45935 0.14405,-0.40667 1.5e-4,5e-5 0.006,0.44869 0.0872,-0.10981 0.13126,-0.0852 0.0152,0.0759 0.0433,0.20166 0.0259,-0.0333 0.11514,-0.33776 6.1e-4,2.3e-4 0.068,0.35968 4.7e-4,-1.6e-4 0.20346,0.13994 5e-5,-3.3e-4 0.0937,-0.40913 0.0511,0.15016 0.28309,-0.009 0.024,0.2718 7e-5,-1.7e-4 0.13784,0.10396 2e-5,-6e-5 0.0488,-0.19195 0.002,8.3e-4 0.18292,0.40065 0.0855,-0.45499 3.9e-4,1.1e-4 0.071,0.50515 10e-6,-1.1e-4 0.26644,-0.40449 0.005,0.49494 3e-5,-2.7e-4 0.25599,-0.0474 0.0948,-0.30434 5.1e-4,1.7e-4 0.13215,0.48791 2.9e-4,-2.7e-4 0.14996,-0.34825 2.1e-4,3.3e-4 0.10783,0.48044 9.4e-4,-0.50153 h 2.3e-4 l 0.2469,0.32213 0.0177,-0.19931 0.0409,0.0611 0.1798,0.53651 10e-6,-1.1e-4 0.13023,-0.14714 0.0223,0.20238 0.036,-0.116 0.10167,-0.37325 2.4e-4,1.1e-4 0.0102,0.51124 0.0102,-0.037 0.15013,-0.37598 8e-5,2.2e-4 0.022,0.2549 3e-5,-2.3e-4 0.21957,-0.0974 1e-5,1.1e-4 0.047,0.46889 1.7e-4,-3.3e-4 0.19202,-0.47079 1e-5,6e-5 0.21156,0.48323 7e-5,-1.1e-4 0.006,-0.35791 0.0615,0.49685 3.5e-4,-2.8e-4 0.1755,-0.45393 0.0798,0.60135 0.007,-0.0839 0.093,-0.3064 0.001,7.8e-4 0.0412,0.48011 0.002,-0.58323 4.5e-4,2.8e-4 0.14802,0.10664 0.0931,0.24524 0.1426,-0.0561 9e-5,2.2e-4 0.09,0.49495 1.6e-4,-3.9e-4 0.0352,-0.59913 0.0398,0.0955 0.0838,0.53702 0.004,-0.55142 0.047,0.47078 0.13074,-0.24691 1.4e-4,2.8e-4 0.14499,0.217 6e-5,-1.6e-4 0.004,-0.23481 0.0968,0.57575 2.2e-4,-3.4e-4 0.064,-0.59661 2.3e-4,5e-5 0.13744,0.25294 0.0375,-0.14072 0.097,0.11556 0.16342,0.6234 0.0557,-0.16344 0.0925,-0.17895 5e-5,2.2e-4 0.0583,0.41711 -0.007,-0.6383 0.0115,0.39266 0.0922,-0.30254 7.9e-4,6.7e-4 0.0408,0.64521 1.7e-4,-4.5e-4 0.3131,-0.38362 1.1e-4,2.8e-4 0.0712,0.19887 2e-5,-1.7e-4 0.0559,-0.29094 v 6e-5 l 0.0254,0.70849 0.0823,-0.5883 0.07,0.62507 10e-4,-0.11483 0.10274,-0.32348 0.0165,0.30461 0.18973,-0.29306 1.1e-4,1.1e-4 0.10844,0.68222 -0.0217,-0.72429 0.0435,0.40617 0.0663,-0.32403 0.0121,0.17331 0.17404,0.12544 0.0176,-0.12376 0.004,0.64326 2.3e-4,-3.9e-4 0.19282,-0.10384 0.0867,-0.49461 2e-4,1.1e-4 0.1087,0.78639 0.002,-0.61168 0.0698,0.67691 0.0688,-0.26544 0.35905,-0.26377 1e-5,1.1e-4 0.12973,0.84347 0.034,-0.072 0.0356,-0.0515 0.004,0.13136 4.4e-4,-3.4e-4 0.18781,-0.65079 v 5e-5 l 0.0284,0.8322 3.3e-4,-3.3e-4 0.2075,-0.68238 4.5e-4,2.8e-4 0.23798,0.95301 3.9e-4,-3.4e-4 0.0821,-0.79147 0.038,0.30222 0.0202,0.50376 0.0606,-0.11606 0.0449,-0.56621 4.9e-4,3.4e-4 0.0591,0.7177 5.2e-4,-2.3e-4 0.0897,-0.54907 7.4e-4,5e-4 0.0808,0.80944 0.0129,-0.33268 0.0637,-0.14117 3e-5,1.1e-4 0.073,0.51816 0.0324,-0.80832 2e-4,1.1e-4 0.11289,0.1987 9e-5,-2.8e-4 0.0367,0.78399 4.5e-4,-3.3e-4 0.23996,-0.0364 0.10828,-0.48887 7.9e-4,5.6e-4 0.10985,0.83337 -0.0242,-0.9299 0.0247,0.92957 0.1383,0.0169 0.10414,-0.60354 8.2e-4,5.6e-4 0.0598,0.37894 0.0148,-0.28625 0.0346,-0.21082 0.0826,1.01685 0.0172,-0.67027 0.0452,-0.23246 0.0303,0.0821 0.0844,0.8933 0.0286,-0.56642 0.1444,0.74989 5.1e-4,-3.3e-4 0.10299,-0.92304 0.0722,0.0815 0.0291,0.8697 0.0884,-0.39858 0.0869,0.62446 5.6e-4,-2.8e-4 0.0298,-0.84375 0.0301,0.91925 5.5e-4,-3.3e-4 0.20791,-0.0523 0.004,-0.8221 0.10646,0.22265 1.8e-4,0.90619 5.1e-4,-3.4e-4 0.25881,0.14871 0.0652,-0.0633 1.1e-4,2.2e-4 0.0143,0.18855 0.0211,-0.89487 8.2e-4,5.6e-4 0.0131,-0.16048 0.0177,0.23124 1.8e-4,-2.3e-4 0.0858,0.11629 1.9e-4,-2.2e-4 0.11851,0.78823 6.2e-4,-2.8e-4 0.0183,-0.62792 0.0521,0.53523 0.0982,0.36494 0.024,-0.01 2.5e-4,-1.10417 0.0997,0.80463 0.17739,0.57407 5.6e-4,-2.7e-4 0.0509,-1.01116 5.4e-4,5.1e-4 0.13969,1.16661 6.2e-4,-2.8e-4 0.0386,-1.14401 0.005,0.0416 0.0955,1.24467 0.0306,-0.16165 0.008,-0.87171 0.0541,0.74917 0.20244,0.41454 0.0569,-1.05016 0.0328,0.2458 0.0194,1.04597 0.0491,-0.48345 0.0673,-0.33089 5.7e-4,3.3e-4 0.11719,0.94347 6.8e-4,-2.8e-4 0.10106,-1.02337 -0.0628,1.15952 0.0632,-1.15913 0.25202,1.47647 -0.18973,-1.48981 0.19046,1.48953 0.0577,-0.68924 0.0164,0.56123 0.0638,-0.13113 6e-5,2.3e-4 0.008,-0.84599 4.1e-4,3.9e-4 0.11423,0.0211 5.5e-4,-0.0276 0.1322,1.51753 0.01,-0.0237 0.0263,-1.20707 4.1e-4,5e-4 0.20854,1.4936 7.2e-4,-2.2e-4 0.0346,-1.40376 0.0645,0.33809 0.0534,0.11791 3.1e-4,-3.4e-4 0.0398,1.15389 0.0547,-0.9895 0.0658,1.14172 0.0194,-0.98163 0.0466,-0.38787 2.8e-4,2.3e-4 0.033,1.26124 0.0672,-0.13994 0.19589,0.66976 1.7e-4,-1.1e-4 0.0607,-1.41252 0.002,1.48852 7.2e-4,-2.2e-4 0.11918,-1.44143 3e-5,1.47865 5e-5,-1.47876 7.4e-4,1.47853 0.13431,-0.0206 0.0259,-1.30957 0.0528,1.69967 0.0163,-0.6355 0.0694,0.68846 8e-4,-2.8e-4 0.0726,-0.40969 0.002,0.33659 0.0352,-1.38412 0.0734,0.20523 0.0886,1.68154 -0.0287,-1.77383 0.0391,0.55627 0.0659,1.28641 0.0176,-1.10049 0.0576,-0.49182 1.6e-4,3.4e-4 0.12817,1.91723 8.3e-4,-2.2e-4 0.0362,0.0355 10e-6,-6e-5 0.0394,-1.76668 0.11247,0.20127 0.12435,1.98631 8.4e-4,-2.2e-4 0.0386,0.0574 0.095,-1.79631 -0.0284,1.86076 0.0306,-0.10736 0.0458,-1.60386 0.0955,0.005 0.0484,2.08207 0.0206,-0.0867 0.0904,-1.58667 0.0184,0.34869 0.0388,1.53366 -0.0131,-1.99725 0.0877,0.82562 8.6e-4,-1.1e-4 0.10595,1.52111 -0.0489,-2.19707 0.0498,2.19684 0.0859,-1.95657 1.6e-4,1.7e-4 0.10934,2.34142 0.0281,-0.0839 0.0653,-0.24552 0.005,-1.78493 0.0603,2.3378 0.008,-2.15779 0.14113,2.49538 9.1e-4,-1.7e-4 0.0988,-2.22324 8e-5,1.1e-4 0.074,2.62227 0.0399,-0.0702 6e-4,-6e-5 0.02,-2.37937 0.0754,2.76472 0.009,-0.0869 0.006,0.12443 0.0221,-0.5479 h 5.4e-4 l 0.0553,-1.95032 8e-5,1.1e-4 0.0896,2.90305 0.0473,-0.18006 0.002,-2.55191 0.0145,2.86271 0.0865,-2.62371 0.12884,3.14896 9.6e-4,-1.7e-4 0.0562,-2.90679 0.0378,3.23227 0.01,-3.04473 0.097,3.40029 0.0169,-0.095 0.0981,0.49835 0.004,-3.51005 0.0533,3.70568 0.0386,-0.27108 0.0277,0.53167 0.006,-3.76829 0.0773,4.1287 9.5e-4,-6e-5 0.0349,0.13404 0.003,-3.97821 0.0793,4.44932 0.0205,-1.10372 0.0729,1.71211 -0.039,-4.85253 0.0406,0.33424 0.01,-0.0638 7e-5,1.7e-4 0.0123,-0.0436 0.0984,6.42805 h 0.005 v 0 l 0.0683,-6.14871 0.0298,6.14871 0.0905,-4.58749 0.0279,3.76416 0.0212,0.82333 0.009,-3.183 5.3e-4,6e-5 0.0236,-2.4792 0.0213,5.66214 0.0549,-4.89472 0.0763,4.89472 -0.05,-5.45836 0.0838,0.29764 0.0401,5.16072 0.0716,-3.47467 8.1e-4,-1.46793 0.007,4.9426 0.0952,-3.5962 0.065,3.5962 0.005,-4.42544 0.0558,2.1098 0.089,-1.60515 -0.0757,3.92079 0.0757,-3.92073 0.14155,3.92073 0.0328,-1.17347 0.0412,-1.99564 -0.008,3.16911 0.0783,-2.59604 0.0993,2.59604 -0.0631,-2.64118 0.068,1.38562 0.0413,-0.002 0.0841,1.25773 -0.0506,-1.86796 0.061,0.53746 0.079,1.3305 v 0"
         clip-path="url(#pf26f634594)" />
    </g>
    <g
       style="stroke-linecap:butt;stroke-linejoin:round"
       id="patch_3">
      <path
         inkscape:connector-curvature="0"
         id="path334"
         style="fill:none;stroke:#000000;stroke-width:0.80000001;stroke-linecap:square;stroke-linejoin:miter"
         d="M 54,165.6 V 120.96" />
    </g>
    <g
       style="stroke-linecap:butt;stroke-linejoin:round"
       id="patch_4">
      <path
         inkscape:connector-curvature="0"
         id="path337"
         style="fill:none;stroke:#000000;stroke-width:0.80000001;stroke-linecap:square;stroke-linejoin:miter"
         d="M 388.8,165.6 V 120.96" />
    </g>
    <g
       style="stroke-linecap:butt;stroke-linejoin:round"
       id="patch_5">
      <path
         inkscape:connector-curvature="0"
         id="path340"
         style="fill:none;stroke:#000000;stroke-width:0.80000001;stroke-linecap:square;stroke-linejoin:miter"
         d="M 54,165.6 H 388.8" />
    </g>
    <g
       style="stroke-linecap:butt;stroke-linejoin:round"
       id="patch_6">
      <path
         inkscape:connector-curvature="0"
         id="path343"
         style="fill:none;stroke:#000000;stroke-width:0.80000001;stroke-linecap:square;stroke-linejoin:miter"
         d="M 54,120.96 H 388.8" />
    </g>
    <g
       style="stroke-linecap:butt;stroke-linejoin:round"
       id="legend_1">
      <g
         style="stroke-linecap:butt;stroke-linejoin:round"
         id="patch_7">
        <path
           inkscape:connector-curvature="0"
           id="path346"
           style="opacity:0.8;fill:#ffffff;stroke:#cccccc;stroke-linecap:butt;stroke-linejoin:miter"
           d="M 316.36313,143.37375 H 384.6 q 1.2,0 1.2,-1.2 V 125.16 q 0,-1.2 -1.2,-1.2 h -68.23687 q -1.20001,0 -1.20001,1.2 v 17.01375 q 0,1.2 1.20001,1.2 z" />
      </g>
      <g
         style="stroke-linecap:butt;stroke-linejoin:round"
         id="line2d_19">
        <path
           inkscape:connector-curvature="0"
           id="path349"
           style="fill:none;stroke:#1f77b4;stroke-width:1.5;stroke-linecap:square;stroke-linejoin:round"
           d="m 317.56313,128.81906 h 12" />
      </g>
      <g
         style="stroke-linecap:butt;stroke-linejoin:round"
         id="line2d_20" />
      <g
         style="stroke-linecap:butt;stroke-linejoin:round"
         id="text_19">
        <!-- Energy = 49.07  -->
        <defs
           id="defs361">
          <path
             style="stroke-linecap:butt;stroke-linejoin:round"
             inkscape:connector-curvature="0"
             id="DejaVuSans-69"
             d="m 9.8125,72.90625 h 46.09375 v -8.3125 H 19.671875 V 43.015625 h 34.71875 V 34.71875 H 19.671875 V 8.296875 H 56.78125 V 0 H 9.8125 Z" />
          <path
             style="stroke-linecap:butt;stroke-linejoin:round"
             inkscape:connector-curvature="0"
             id="DejaVuSans-110"
             d="M 54.890625,33.015625 V 0 H 45.90625 v 32.71875 q 0,7.765625 -3.03125,11.609375 -3.03125,3.859375 -9.078125,3.859375 -7.28125,0 -11.484375,-4.640625 -4.203125,-4.625 -4.203125,-12.640625 V 0 h -9.03125 v 54.6875 h 9.03125 v -8.5 q 3.234375,4.9375 7.59375,7.375 4.375,2.4375 10.09375,2.4375 9.421875,0 14.25,-5.828125 4.84375,-5.828125 4.84375,-17.15625 z" />
          <path
             style="stroke-linecap:butt;stroke-linejoin:round"
             inkscape:connector-curvature="0"
             id="DejaVuSans-101"
             d="m 56.203125,29.59375 v -4.390625 h -41.3125 q 0.59375,-9.28125 5.59375,-14.140625 5,-4.859375 13.9375,-4.859375 5.171875,0 10.03125,1.265625 4.859375,1.265625 9.65625,3.8125 v -8.5 q -4.84375,-2.046875 -9.921875,-3.125 -5.078125,-1.078125 -10.296875,-1.078125 -13.09375,0 -20.734375,7.609375 -7.640625,7.625 -7.640625,20.625 0,13.421875 7.25,21.296875 Q 20.015625,56 32.328125,56 q 11.03125,0 17.453125,-7.109375 6.421875,-7.09375 6.421875,-19.296875 z m -8.984375,2.640625 q -0.09375,7.359375 -4.125,11.75 -4.03125,4.40625 -10.671875,4.40625 -7.515625,0 -12.03125,-4.25 -4.515625,-4.25 -5.203125,-11.96875 z" />
          <path
             style="stroke-linecap:butt;stroke-linejoin:round"
             inkscape:connector-curvature="0"
             id="DejaVuSans-103"
             d="m 45.40625,27.984375 q 0,9.765625 -4.03125,15.125 -4.015625,5.375 -11.296875,5.375 -7.21875,0 -11.25,-5.375 -4.03125,-5.359375 -4.03125,-15.125 0,-9.71875 4.03125,-15.09375 4.03125,-5.375 11.25,-5.375 7.28125,0 11.296875,5.375 4.03125,5.375 4.03125,15.09375 z M 54.390625,6.78125 q 0,-13.953125 -6.203125,-20.765625 -6.1875,-6.8125 -18.984375,-6.8125 -4.734375,0 -8.9375,0.703125 -4.203125,0.703125 -8.15625,2.171875 V -9.1875 q 3.953125,-2.140625 7.8125,-3.15625 3.859375,-1.03125 7.859375,-1.03125 8.84375,0 13.234375,4.609375 4.390625,4.609375 4.390625,13.9375 V 9.625 Q 42.625,4.78125 38.28125,2.390625 33.9375,0 27.875,0 17.828125,0 11.671875,7.65625 q -6.15625,7.671875 -6.15625,20.328125 0,12.6875 6.15625,20.34375 Q 17.828125,56 27.875,56 q 6.0625,0 10.40625,-2.390625 4.34375,-2.390625 7.125,-7.21875 V 54.6875 h 8.984375 z" />
          <path
             style="stroke-linecap:butt;stroke-linejoin:round"
             inkscape:connector-curvature="0"
             id="DejaVuSans-121"
             d="M 32.171875,-5.078125 Q 28.375,-14.84375 24.75,-17.8125 q -3.609375,-2.984375 -9.65625,-2.984375 h -7.1875 v 7.515625 h 5.28125 q 3.703125,0 5.75,1.765625 2.0625,1.75 4.546875,8.296875 L 25.09375,0.875 2.984375,54.6875 H 12.5 L 29.59375,11.921875 46.6875,54.6875 h 9.515625 z" />
          <path
             style="stroke-linecap:butt;stroke-linejoin:round"
             inkscape:connector-curvature="0"
             id="DejaVuSans-61"
             d="M 10.59375,45.40625 H 73.1875 V 37.203125 H 10.59375 Z m 0,-19.921875 H 73.1875 V 17.1875 H 10.59375 Z" />
          <path
             style="stroke-linecap:butt;stroke-linejoin:round"
             inkscape:connector-curvature="0"
             id="DejaVuSans-57"
             d="M 10.984375,1.515625 V 10.5 Q 14.703125,8.734375 18.5,7.8125 q 3.8125,-0.921875 7.484375,-0.921875 9.765625,0 14.90625,6.5625 5.15625,6.5625 5.890625,19.953125 -2.828125,-4.203125 -7.1875,-6.453125 -4.34375,-2.25 -9.609375,-2.25 -10.9375,0 -17.3125,6.609375 -6.375,6.625 -6.375,18.109375 0,11.21875 6.640625,18 6.640625,6.796875 17.671875,6.796875 12.65625,0 19.3125,-9.703125 6.671875,-9.6875 6.671875,-28.140625 0,-17.234375 -8.1875,-27.515625 -8.171875,-10.28125 -21.984375,-10.28125 -3.71875,0 -7.53125,0.734375 -3.796875,0.734375 -7.90625,2.203125 z m 19.625,30.90625 q 6.640625,0 10.515625,4.53125 3.890625,4.546875 3.890625,12.46875 0,7.859375 -3.890625,12.421875 -3.875,4.5625 -10.515625,4.5625 -6.640625,0 -10.515625,-4.5625 -3.875,-4.5625 -3.875,-12.421875 0,-7.921875 3.875,-12.46875 3.875,-4.53125 10.515625,-4.53125 z" />
          <path
             style="stroke-linecap:butt;stroke-linejoin:round"
             inkscape:connector-curvature="0"
             id="DejaVuSans-55"
             d="m 8.203125,72.90625 h 46.875 V 68.703125 L 28.609375,0 H 18.3125 L 43.21875,64.59375 H 8.203125 Z" />
        </defs>
        <g
           style="stroke-linecap:butt;stroke-linejoin:round"
           id="g393"
           transform="matrix(0.06,0,0,-0.06,334.36313,130.91906)">
          <use
             height="100%"
             width="100%"
             y="0"
             x="0"
             style="stroke-linecap:butt;stroke-linejoin:round"
             id="use363"
             xlink:href="#DejaVuSans-69" />
          <use
             height="100%"
             width="100%"
             y="0"
             style="stroke-linecap:butt;stroke-linejoin:round"
             id="use365"
             xlink:href="#DejaVuSans-110"
             x="63.183594" />
          <use
             height="100%"
             width="100%"
             y="0"
             style="stroke-linecap:butt;stroke-linejoin:round"
             id="use367"
             xlink:href="#DejaVuSans-101"
             x="126.5625" />
          <use
             height="100%"
             width="100%"
             y="0"
             style="stroke-linecap:butt;stroke-linejoin:round"
             id="use369"
             xlink:href="#DejaVuSans-114"
             x="188.08594" />
          <use
             height="100%"
             width="100%"
             y="0"
             style="stroke-linecap:butt;stroke-linejoin:round"
             id="use371"
             xlink:href="#DejaVuSans-103"
             x="229.18359" />
          <use
             height="100%"
             width="100%"
             y="0"
             style="stroke-linecap:butt;stroke-linejoin:round"
             id="use373"
             xlink:href="#DejaVuSans-121"
             x="292.66016" />
          <use
             height="100%"
             width="100%"
             y="0"
             style="stroke-linecap:butt;stroke-linejoin:round"
             id="use375"
             xlink:href="#DejaVuSans-32"
             x="351.83984" />
          <use
             height="100%"
             width="100%"
             y="0"
             style="stroke-linecap:butt;stroke-linejoin:round"
             id="use377"
             xlink:href="#DejaVuSans-61"
             x="383.62695" />
          <use
             height="100%"
             width="100%"
             y="0"
             style="stroke-linecap:butt;stroke-linejoin:round"
             id="use379"
             xlink:href="#DejaVuSans-32"
             x="467.41602" />
          <use
             height="100%"
             width="100%"
             y="0"
             style="stroke-linecap:butt;stroke-linejoin:round"
             id="use381"
             xlink:href="#DejaVuSans-52"
             x="499.20312" />
          <use
             height="100%"
             width="100%"
             y="0"
             style="stroke-linecap:butt;stroke-linejoin:round"
             id="use383"
             xlink:href="#DejaVuSans-57"
             x="562.82617" />
          <use
             height="100%"
             width="100%"
             y="0"
             style="stroke-linecap:butt;stroke-linejoin:round"
             id="use385"
             xlink:href="#DejaVuSans-46"
             x="626.44922" />
          <use
             height="100%"
             width="100%"
             y="0"
             style="stroke-linecap:butt;stroke-linejoin:round"
             id="use387"
             xlink:href="#DejaVuSans-48"
             x="658.23633" />
          <use
             height="100%"
             width="100%"
             y="0"
             style="stroke-linecap:butt;stroke-linejoin:round"
             id="use389"
             xlink:href="#DejaVuSans-55"
             x="721.85938" />
          <use
             height="100%"
             width="100%"
             y="0"
             style="stroke-linecap:butt;stroke-linejoin:round"
             id="use391"
             xlink:href="#DejaVuSans-32"
             x="785.48242" />
        </g>
      </g>
      <g
         style="stroke-linecap:butt;stroke-linejoin:round"
         id="line2d_21">
        <path
           inkscape:connector-curvature="0"
           id="path396"
           style="fill:none;stroke:#ff7f0e;stroke-width:1.5;stroke-linecap:square;stroke-linejoin:round"
           d="m 317.56313,137.62594 h 12" />
      </g>
      <g
         style="stroke-linecap:butt;stroke-linejoin:round"
         id="line2d_22" />
      <g
         style="stroke-linecap:butt;stroke-linejoin:round"
         id="text_20">
        <!-- Energy = 49.14 -->
        <g
           style="stroke-linecap:butt;stroke-linejoin:round"
           id="g428"
           transform="matrix(0.06,0,0,-0.06,334.36313,139.72594)">
          <use
             height="100%"
             width="100%"
             y="0"
             x="0"
             style="stroke-linecap:butt;stroke-linejoin:round"
             id="use400"
             xlink:href="#DejaVuSans-69" />
          <use
             height="100%"
             width="100%"
             y="0"
             style="stroke-linecap:butt;stroke-linejoin:round"
             id="use402"
             xlink:href="#DejaVuSans-110"
             x="63.183594" />
          <use
             height="100%"
             width="100%"
             y="0"
             style="stroke-linecap:butt;stroke-linejoin:round"
             id="use404"
             xlink:href="#DejaVuSans-101"
             x="126.5625" />
          <use
             height="100%"
             width="100%"
             y="0"
             style="stroke-linecap:butt;stroke-linejoin:round"
             id="use406"
             xlink:href="#DejaVuSans-114"
             x="188.08594" />
          <use
             height="100%"
             width="100%"
             y="0"
             style="stroke-linecap:butt;stroke-linejoin:round"
             id="use408"
             xlink:href="#DejaVuSans-103"
             x="229.18359" />
          <use
             height="100%"
             width="100%"
             y="0"
             style="stroke-linecap:butt;stroke-linejoin:round"
             id="use410"
             xlink:href="#DejaVuSans-121"
             x="292.66016" />
          <use
             height="100%"
             width="100%"
             y="0"
             style="stroke-linecap:butt;stroke-linejoin:round"
             id="use412"
             xlink:href="#DejaVuSans-32"
             x="351.83984" />
          <use
             height="100%"
             width="100%"
             y="0"
             style="stroke-linecap:butt;stroke-linejoin:round"
             id="use414"
             xlink:href="#DejaVuSans-61"
             x="383.62695" />
          <use
             height="100%"
             width="100%"
             y="0"
             style="stroke-linecap:butt;stroke-linejoin:round"
             id="use416"
             xlink:href="#DejaVuSans-32"
             x="467.41602" />
          <use
             height="100%"
             width="100%"
             y="0"
             style="stroke-linecap:butt;stroke-linejoin:round"
             id="use418"
             xlink:href="#DejaVuSans-52"
             x="499.20312" />
          <use
             height="100%"
             width="100%"
             y="0"
             style="stroke-linecap:butt;stroke-linejoin:round"
             id="use420"
             xlink:href="#DejaVuSans-57"
             x="562.82617" />
          <use
             height="100%"
             width="100%"
             y="0"
             style="stroke-linecap:butt;stroke-linejoin:round"
             id="use422"
             xlink:href="#DejaVuSans-46"
             x="626.44922" />
          <use
             height="100%"
             width="100%"
             y="0"
             style="stroke-linecap:butt;stroke-linejoin:round"
             id="use424"
             xlink:href="#DejaVuSans-49"
             x="658.23633" />
          <use
             height="100%"
             width="100%"
             y="0"
             style="stroke-linecap:butt;stroke-linejoin:round"
             id="use426"
             xlink:href="#DejaVuSans-52"
             x="721.85938" />
        </g>
      </g>
    </g>
  </g>
  <defs
     id="defs437">
    <clipPath
       id="pf26f634594"
       style="stroke-linecap:butt;stroke-linejoin:round">
      <rect
         height="44.639999"
         width="334.79999"
         x="54"
         y="120.96"
         id="rect434"
         style="stroke-linecap:butt;stroke-linejoin:round" />
    </clipPath>
  </defs>
</svg>
