1	-0.933233	-0.933233	0.000000
2	0.933233	-0.933233	0.000000
3	0.933233	0.933233	0.000000
4	-0.933233	0.933233	0.000000
5	-0.139187	-0.139187	0.371358
6	0.139187	-0.139187	0.371358
7	0.139187	0.139187	0.371358
8	-0.139187	0.139187	0.371358
9	2.000000	2.000000	0.001000
10	2.000000	-2.000000	0.001000
11	-2.000000	-2.000000	0.001000
12	-2.000000	2.000000	0.001000
13	0.000000	-0.516525	0.314181
14	0.516525	-0.000000	0.314181
15	0.000000	0.516525	0.314181
16	-0.516525	0.000000	0.314181
17	-0.000000	-0.000000	0.383137
18	0.000000	0.000000	0.001000
19	0.000000	-1.302234	0.000000
20	1.302234	0.000000	0.000000
21	0.000000	1.302234	0.000000
22	-1.302234	-0.000000	0.000000
23	-0.519898	-1.208199	0.000000
24	1.208199	-0.519898	0.000000
25	0.519898	1.208199	0.000000
26	-1.208199	0.519898	0.000000
27	0.000000	-0.137950	0.376917
28	0.137950	-0.000000	0.376917
29	-0.000000	0.137950	0.376917
30	-0.137950	0.000000	0.376917
31	-0.569305	-0.569305	0.233332
32	0.569305	-0.569305	0.233332
33	0.569305	0.569305	0.233332
34	-0.569305	0.569305	0.233332
35	-0.482924	-0.767453	0.196475
36	0.482924	-0.767453	0.196475
37	0.076082	-0.326976	0.351008
38	-0.076082	-0.326976	0.351008
39	0.767453	-0.482924	0.196475
40	0.767453	0.482924	0.196475
41	0.326976	0.076082	0.351008
42	0.326976	-0.076082	0.351008
43	0.482924	0.767453	0.196475
44	-0.482924	0.767453	0.196475
45	-0.076082	0.326976	0.351008
46	0.076082	0.326976	0.351008
47	-0.767453	0.482924	0.196475
48	-0.767453	-0.482924	0.196475
49	-0.326976	-0.076082	0.351008
50	-0.326976	0.076082	0.351008
51	-0.069143	-0.069143	0.380187
52	0.069143	-0.069143	0.380187
53	0.069143	0.069143	0.380187
54	-0.069143	0.069143	0.380187
55	0.519898	-1.208199	0.000000
56	0.000000	-0.895601	0.200349
57	1.208199	0.519898	0.000000
58	0.895601	0.000000	0.200349
59	-0.519898	1.208199	0.000000
60	0.000000	0.895601	0.200349
61	-1.208199	-0.519898	0.000000
62	-0.895601	0.000000	0.200349
63	-0.742799	-1.088497	0.000000
64	1.088497	-0.742799	0.000000
65	0.742799	1.088497	0.000000
66	-1.088497	0.742799	0.000000
67	-0.069203	-0.138197	0.375495
68	0.138197	-0.069203	0.375495
69	0.069203	0.138197	0.375495
70	-0.138197	0.069203	0.375495
71	-0.760947	-0.760947	0.125605
72	0.760947	-0.760947	0.125605
73	0.760947	0.760947	0.125605
74	-0.760947	0.760947	0.125605
75	-0.715861	-0.862205	0.104775
76	0.715861	-0.862205	0.104775
77	0.108176	-0.233133	0.363080
78	-0.108176	-0.233133	0.363080
79	0.862205	-0.715861	0.104775
80	0.862205	0.715861	0.104775
81	0.233133	0.108176	0.363080
82	0.233133	-0.108176	0.363080
83	0.715861	0.862205	0.104775
84	-0.715861	0.862205	0.104775
85	-0.108176	0.233133	0.363080
86	0.108176	0.233133	0.363080
87	-0.862205	0.715861	0.104775
88	-0.862205	-0.715861	0.104775
89	-0.233133	-0.108176	0.363080
90	-0.233133	0.108176	0.363080
91	-0.103673	-0.103673	0.376419
92	0.103673	-0.103673	0.376419
93	0.103673	0.103673	0.376419
94	-0.103673	0.103673	0.376419
95	0.263872	-1.283717	0.000000
96	0.000000	-1.093150	0.114886
97	1.283717	0.263872	0.000000
98	1.093150	-0.000000	0.114886
99	-0.263872	1.283717	0.000000
100	0.000000	1.093150	0.114886
101	-1.283717	-0.263872	0.000000
102	-1.093150	0.000000	0.114886
103	-0.263872	-1.283717	0.000000
104	1.283717	-0.263872	0.000000
105	0.263872	1.283717	0.000000
106	-1.283717	0.263872	0.000000
107	0.069203	-0.138197	0.375495
108	0.138197	0.069203	0.375495
109	-0.069203	0.138197	0.375495
110	-0.138197	-0.069203	0.375495
111	-0.357683	-0.357683	0.317927
112	0.357683	-0.357683	0.317927
113	0.357683	0.357683	0.317927
114	-0.357683	0.357683	0.317927
115	-0.240170	-0.645336	0.270059
116	0.240170	-0.645336	0.270059
117	0.038996	-0.422271	0.334588
118	-0.038996	-0.422271	0.334588
119	0.645336	-0.240170	0.270059
120	0.645336	0.240170	0.270059
121	0.422271	0.038996	0.334588
122	0.422271	-0.038996	0.334588
123	0.240170	0.645336	0.270059
124	-0.240170	0.645336	0.270059
125	-0.038996	0.422271	0.334588
126	0.038996	0.422271	0.334588
127	-0.645336	0.240170	0.270059
128	-0.645336	-0.240170	0.270059
129	-0.422271	-0.038996	0.334588
130	-0.422271	0.038996	0.334588
131	-0.034531	-0.034531	0.382485
132	0.034531	-0.034531	0.382485
133	0.034531	0.034531	0.382485
134	-0.034531	0.034531	0.382485
135	0.742799	-1.088497	0.000000
136	0.000000	-0.707538	0.264314
137	1.088497	0.742799	0.000000
138	0.707538	-0.000000	0.264314
139	-0.742799	1.088497	0.000000
140	0.000000	0.707538	0.264314
141	-1.088497	-0.742799	0.000000
142	-0.707538	0.000000	0.264314
143	-0.281797	-0.552247	0.289606
144	-0.322395	-0.450519	0.306185
145	-0.527368	-0.668629	0.217021
146	0.552247	-0.281797	0.289606
147	0.450519	-0.322395	0.306185
148	0.668629	-0.527368	0.217021
149	0.281797	0.552247	0.289606
150	0.322395	0.450519	0.306185
151	0.527368	0.668629	0.217021
152	-0.552247	0.281797	0.289606
153	-0.450519	0.322395	0.306185
154	-0.668629	0.527368	0.217021
155	-0.069301	-0.000000	0.381703
156	-0.103627	0.034723	0.379353
157	-0.103627	-0.034723	0.379353
158	0.245177	-0.835502	0.209731
159	0.259499	-1.051337	0.120586
160	0.502950	-0.984993	0.111023
161	0.527368	-0.668629	0.217021
162	0.322395	-0.450519	0.306185
163	0.281797	-0.552247	0.289606
164	0.037322	-0.232071	0.366051
165	-0.037322	-0.232071	0.366051
166	0.000000	-0.326146	0.352593
167	0.835502	0.245177	0.209731
168	1.051337	0.259499	0.120586
169	0.984993	0.502950	0.111023
170	0.668629	0.527368	0.217021
171	0.450519	0.322395	0.306185
172	0.552247	0.281797	0.289606
173	0.232071	0.037322	0.366051
174	0.232071	-0.037322	0.366051
175	0.326146	-0.000000	0.352593
176	-0.245177	0.835502	0.209731
177	-0.259499	1.051337	0.120586
178	-0.502950	0.984993	0.111023
179	-0.527368	0.668629	0.217021
180	-0.322395	0.450519	0.306185
181	-0.281797	0.552247	0.289606
182	-0.037322	0.232071	0.366051
183	0.037322	0.232071	0.366051
184	-0.000000	0.326146	0.352593
185	-0.835502	-0.245177	0.209731
186	-1.051337	-0.259499	0.120586
187	-0.984993	-0.502950	0.111023
188	-0.668629	-0.527368	0.217021
189	-0.450519	-0.322395	0.306185
190	-0.552247	-0.281797	0.289606
191	-0.232071	-0.037322	0.366051
192	-0.232071	0.037322	0.366051
193	-0.326146	0.000000	0.352593
194	-0.034723	-0.103627	0.379353
195	0.034723	-0.103627	0.379353
196	0.000000	-0.069301	0.381703
197	0.103627	-0.034723	0.379353
198	0.103627	0.034723	0.379353
199	0.069301	0.000000	0.381703
200	0.034723	0.103627	0.379353
201	-0.034723	0.103627	0.379353
202	0.000000	0.069301	0.381703
203	-0.502950	-0.984993	0.111023
204	-0.259499	-1.051337	0.120586
205	-0.245177	-0.835502	0.209731
206	0.984993	-0.502950	0.111023
207	1.051337	-0.259499	0.120586
208	0.835502	-0.245177	0.209731
209	0.502950	0.984993	0.111023
210	0.259499	1.051337	0.120586
211	0.245177	0.835502	0.209731
212	-0.984993	0.502950	0.111023
213	-1.051337	0.259499	0.120586
214	-0.835502	0.245177	0.209731
