1	-0.711315	-0.711315	0.000000
2	0.711315	-0.711315	0.000000
3	0.711315	0.711315	0.000000
4	-0.711315	0.711315	0.000000
5	-0.232226	-0.232226	0.533062
6	0.232226	-0.232226	0.533062
7	0.232226	0.232226	0.533062
8	-0.232226	0.232226	0.533062
9	2.000000	2.000000	0.001000
10	2.000000	-2.000000	0.001000
11	-2.000000	-2.000000	0.001000
12	-2.000000	2.000000	0.001000
13	0.000000	-0.596299	0.412385
14	0.596299	-0.000000	0.412385
15	0.000000	0.596299	0.412385
16	-0.596299	-0.000000	0.412385
17	0.000000	-0.000000	0.579578
18	0.000000	0.000000	0.001000
19	-0.000000	-0.995096	0.000000
20	0.995096	0.000000	0.000000
21	0.000000	0.995096	0.000000
22	-0.995096	-0.000000	0.000000
23	-0.383864	-0.925096	0.000000
24	0.925096	-0.383864	0.000000
25	0.383864	0.925096	0.000000
26	-0.925096	0.383864	0.000000
27	0.000000	-0.229374	0.557672
28	0.229374	0.000000	0.557672
29	-0.000000	0.229374	0.557672
30	-0.229374	0.000000	0.557672
31	-0.511515	-0.511515	0.325269
32	0.511515	-0.511515	0.325269
33	0.511515	0.511515	0.325269
34	-0.511515	0.511515	0.325269
35	-0.379816	-0.704590	0.257331
36	0.379816	-0.704590	0.257331
37	0.131001	-0.423906	0.491415
38	-0.131001	-0.423906	0.491415
39	0.704590	-0.379816	0.257331
40	0.704590	0.379816	0.257331
41	0.423906	0.131001	0.491415
42	0.423906	-0.131001	0.491415
43	0.379816	0.704590	0.257331
44	-0.379816	0.704590	0.257331
45	-0.131001	0.423906	0.491415
46	0.131001	0.423906	0.491415
47	-0.704590	0.379816	0.257331
48	-0.704590	-0.379816	0.257331
49	-0.423906	-0.131001	0.491415
50	-0.423906	0.131001	0.491415
51	-0.106336	-0.106336	0.570756
52	0.106336	-0.106336	0.570756
53	0.106336	0.106336	0.570756
54	-0.106336	0.106336	0.570756
55	0.383864	-0.925096	0.000000
56	0.000000	-0.836113	0.220238
57	0.925096	0.383864	0.000000
58	0.836113	0.000000	0.220238
59	-0.383864	0.925096	0.000000
60	0.000000	0.836113	0.220238
61	-0.925096	-0.383864	0.000000
62	-0.836113	-0.000000	0.220238
63	-0.557946	-0.833806	0.000000
64	0.833806	-0.557946	0.000000
65	0.557946	0.833806	0.000000
66	-0.833806	0.557946	0.000000
67	-0.114300	-0.230274	0.551713
68	0.230274	-0.114300	0.551713
69	0.114300	0.230274	0.551713
70	-0.230274	0.114300	0.551713
71	-0.622332	-0.622332	0.174198
72	0.622332	-0.622332	0.174198
73	0.622332	0.622332	0.174198
74	-0.622332	0.622332	0.174198
75	-0.553378	-0.722866	0.137298
76	0.553378	-0.722866	0.137298
77	0.183836	-0.329445	0.517046
78	-0.183836	-0.329445	0.517046
79	0.722866	-0.553378	0.137298
80	0.722866	0.553378	0.137298
81	0.329445	0.183836	0.517046
82	0.329445	-0.183836	0.517046
83	0.553378	0.722866	0.137298
84	-0.553378	0.722866	0.137298
85	-0.183836	0.329445	0.517046
86	0.183836	0.329445	0.517046
87	-0.722866	0.553378	0.137298
88	-0.722866	-0.553378	0.137298
89	-0.329445	-0.183836	0.517046
90	-0.329445	0.183836	0.517046
91	-0.165858	-0.165858	0.556601
92	0.165858	-0.165858	0.556601
93	0.165858	0.165858	0.556601
94	-0.165858	0.165858	0.556601
95	0.191038	-0.980919	0.000000
96	0.000000	-0.926040	0.110936
97	0.980919	0.191038	0.000000
98	0.926040	0.000000	0.110936
99	-0.191038	0.980919	0.000000
100	0.000000	0.926040	0.110936
101	-0.980919	-0.191038	0.000000
102	-0.926040	-0.000000	0.110936
103	-0.191038	-0.980919	0.000000
104	0.980919	-0.191038	0.000000
105	0.191038	0.980919	0.000000
106	-0.980919	0.191038	0.000000
107	0.114300	-0.230274	0.551713
108	0.230274	0.114300	0.551713
109	-0.114300	0.230274	0.551713
110	-0.230274	-0.114300	0.551713
111	-0.377137	-0.377137	0.449599
112	0.377137	-0.377137	0.449599
113	0.377137	0.377137	0.449599
114	-0.377137	0.377137	0.449599
115	-0.190126	-0.658573	0.353736
116	0.190126	-0.658573	0.353736
117	0.068648	-0.513013	0.456847
118	-0.068648	-0.513013	0.456847
119	0.658573	-0.190126	0.353736
120	0.658573	0.190126	0.353736
121	0.513013	0.068648	0.456847
122	0.513013	-0.068648	0.456847
123	0.190126	0.658573	0.353736
124	-0.190126	0.658573	0.353736
125	-0.068648	0.513013	0.456847
126	0.068648	0.513013	0.456847
127	-0.658573	0.190126	0.353736
128	-0.658573	-0.190126	0.353736
129	-0.513013	-0.068648	0.456847
130	-0.513013	0.068648	0.456847
131	-0.052494	-0.052494	0.577944
132	0.052494	-0.052494	0.577944
133	0.052494	0.052494	0.577944
134	-0.052494	0.052494	0.577944
135	0.557946	-0.833806	0.000000
136	0.000000	-0.721991	0.325396
137	0.833806	0.557946	0.000000
138	0.721991	0.000000	0.325396
139	-0.557946	0.833806	0.000000
140	0.000000	0.721991	0.325396
141	-0.833806	-0.557946	0.000000
142	-0.721991	-0.000000	0.325396
143	-0.260010	-0.574232	0.392460
144	-0.324783	-0.474667	0.426393
145	-0.450704	-0.612739	0.294226
146	0.574232	-0.260010	0.392460
147	0.474667	-0.324783	0.426393
148	0.612739	-0.450704	0.294226
149	0.260010	0.574232	0.392460
150	0.324783	0.474667	0.426393
151	0.450704	0.612739	0.294226
152	-0.574232	0.260010	0.392460
153	-0.474667	0.324783	0.426393
154	-0.612739	0.450704	0.294226
155	-0.108736	0.000000	0.575408
156	-0.168110	0.054378	0.567069
157	-0.168110	-0.054378	0.567069
158	0.197548	-0.781949	0.250662
159	0.200734	-0.894010	0.125924
160	0.389751	-0.824610	0.133600
161	0.450704	-0.612739	0.294226
162	0.324783	-0.474667	0.426393
163	0.260010	-0.574232	0.392460
164	0.062525	-0.324734	0.532063
165	-0.062525	-0.324734	0.532063
166	-0.000000	-0.420512	0.500691
167	0.781949	0.197548	0.250662
168	0.894010	0.200734	0.125924
169	0.824610	0.389751	0.133600
170	0.612739	0.450704	0.294226
171	0.474667	0.324783	0.426393
172	0.574232	0.260010	0.392460
173	0.324734	0.062525	0.532063
174	0.324734	-0.062525	0.532063
175	0.420512	0.000000	0.500691
176	-0.197548	0.781949	0.250662
177	-0.200734	0.894010	0.125924
178	-0.389751	0.824610	0.133600
179	-0.450704	0.612739	0.294226
180	-0.324783	0.474667	0.426393
181	-0.260010	0.574232	0.392460
182	-0.062525	0.324734	0.532063
183	0.062525	0.324734	0.532063
184	0.000000	0.420512	0.500691
185	-0.781949	-0.197548	0.250662
186	-0.894010	-0.200734	0.125924
187	-0.824610	-0.389751	0.133600
188	-0.612739	-0.450704	0.294226
189	-0.474667	-0.324783	0.426393
190	-0.574232	-0.260010	0.392460
191	-0.324734	-0.062525	0.532063
192	-0.324734	0.062525	0.532063
193	-0.420512	-0.000000	0.500691
194	-0.054378	-0.168110	0.567069
195	0.054378	-0.168110	0.567069
196	0.000000	-0.108736	0.575408
197	0.168110	-0.054378	0.567069
198	0.168110	0.054378	0.567069
199	0.108736	-0.000000	0.575408
200	0.054378	0.168110	0.567069
201	-0.054378	0.168110	0.567069
202	0.000000	0.108736	0.575408
203	-0.389751	-0.824610	0.133600
204	-0.200734	-0.894010	0.125924
205	-0.197548	-0.781949	0.250662
206	0.824610	-0.389751	0.133600
207	0.894010	-0.200734	0.125924
208	0.781949	-0.197548	0.250662
209	0.389751	0.824610	0.133600
210	0.200734	0.894010	0.125924
211	0.197548	0.781949	0.250662
212	-0.824610	0.389751	0.133600
213	-0.894010	0.200734	0.125924
214	-0.781949	0.197548	0.250662
