1	-0.559099	-0.559099	0.000000
2	0.559099	-0.559099	0.000000
3	0.559099	0.559099	0.000000
4	-0.559099	0.559099	0.000000
5	-0.296440	-0.296440	0.665206
6	0.296440	-0.296440	0.665206
7	0.296440	0.296440	0.665206
8	-0.296440	0.296440	0.665206
9	2.000000	2.000000	0.001000
10	2.000000	-2.000000	0.001000
11	-2.000000	-2.000000	0.001000
12	-2.000000	2.000000	0.001000
13	0.000000	-0.649639	0.438453
14	0.649639	-0.000000	0.438453
15	-0.000000	0.649639	0.438453
16	-0.649639	-0.000000	0.438453
17	0.000000	0.000000	0.782949
18	0.000000	0.000000	0.001000
19	0.000000	-0.780255	0.000000
20	0.780255	0.000000	0.000000
21	0.000000	0.780255	0.000000
22	-0.780255	-0.000000	0.000000
23	-0.288762	-0.729843	0.000000
24	0.729843	-0.288762	0.000000
25	0.288762	0.729843	0.000000
26	-0.729843	0.288762	0.000000
27	0.000000	-0.324172	0.715993
28	0.324172	-0.000000	0.715993
29	0.000000	0.324172	0.715993
30	-0.324172	0.000000	0.715993
31	-0.480467	-0.480467	0.395994
32	0.480467	-0.480467	0.395994
33	0.480467	0.480467	0.395994
34	-0.480467	0.480467	0.395994
35	-0.313154	-0.663860	0.280348
36	0.313154	-0.663860	0.280348
37	0.166188	-0.508267	0.576000
38	-0.166188	-0.508267	0.576000
39	0.663860	-0.313154	0.280348
40	0.663860	0.313154	0.280348
41	0.508267	0.166188	0.576000
42	0.508267	-0.166188	0.576000
43	0.313154	0.663860	0.280348
44	-0.313154	0.663860	0.280348
45	-0.166188	0.508267	0.576000
46	0.166188	0.508267	0.576000
47	-0.663860	0.313154	0.280348
48	-0.663860	-0.313154	0.280348
49	-0.508267	-0.166188	0.576000
50	-0.508267	0.166188	0.576000
51	-0.135603	-0.135603	0.761646
52	0.135603	-0.135603	0.761646
53	0.135603	0.135603	0.761646
54	-0.135603	0.135603	0.761646
55	0.288762	-0.729843	0.000000
56	-0.000000	-0.756478	0.207752
57	0.729843	0.288762	0.000000
58	0.756478	0.000000	0.207752
59	-0.288762	0.729843	0.000000
60	0.000000	0.756478	0.207752
61	-0.729843	-0.288762	0.000000
62	-0.756478	-0.000000	0.207752
63	-0.428692	-0.659847	0.000000
64	0.659847	-0.428692	0.000000
65	0.428692	0.659847	0.000000
66	-0.659847	0.428692	0.000000
67	-0.150492	-0.317197	0.703324
68	0.317197	-0.150492	0.703324
69	0.150492	0.317197	0.703324
70	-0.317197	0.150492	0.703324
71	-0.536447	-0.536447	0.210585
72	0.536447	-0.536447	0.210585
73	0.536447	0.536447	0.210585
74	-0.536447	0.536447	0.210585
75	-0.448757	-0.627902	0.153934
76	0.448757	-0.627902	0.153934
77	0.237916	-0.409698	0.627427
78	-0.237916	-0.409698	0.627427
79	0.627902	-0.448757	0.153934
80	0.627902	0.448757	0.153934
81	0.409698	0.237916	0.627427
82	0.409698	-0.237916	0.627427
83	0.448757	0.627902	0.153934
84	-0.448757	0.627902	0.153934
85	-0.237916	0.409698	0.627427
86	0.237916	0.409698	0.627427
87	-0.627902	0.448757	0.153934
88	-0.627902	-0.448757	0.153934
89	-0.409698	-0.237916	0.627427
90	-0.409698	0.237916	0.627427
91	-0.213946	-0.213946	0.725316
92	0.213946	-0.213946	0.725316
93	0.213946	0.213946	0.725316
94	-0.213946	0.213946	0.725316
95	0.140924	-0.770433	0.000000
96	0.000000	-0.776871	0.096928
97	0.770433	0.140924	0.000000
98	0.776871	0.000000	0.096928
99	-0.140924	0.770433	0.000000
100	0.000000	0.776871	0.096928
101	-0.770433	-0.140924	0.000000
102	-0.776871	-0.000000	0.096928
103	-0.140924	-0.770433	0.000000
104	0.770433	-0.140924	0.000000
105	0.140924	0.770433	0.000000
106	-0.770433	0.140924	0.000000
107	0.150492	-0.317197	0.703324
108	0.317197	0.150492	0.703324
109	-0.150492	0.317197	0.703324
110	-0.317197	-0.150492	0.703324
111	-0.397014	-0.397014	0.550414
112	0.397014	-0.397014	0.550414
113	0.397014	0.397014	0.550414
114	-0.397014	0.397014	0.550414
115	-0.157535	-0.671060	0.375682
116	0.157535	-0.671060	0.375682
117	0.084175	-0.588721	0.512749
118	-0.084175	-0.588721	0.512749
119	0.671060	-0.157535	0.375682
120	0.671060	0.157535	0.375682
121	0.588721	0.084175	0.512749
122	0.588721	-0.084175	0.512749
123	0.157535	0.671060	0.375682
124	-0.157535	0.671060	0.375682
125	-0.084175	0.588721	0.512749
126	0.084175	0.588721	0.512749
127	-0.671060	0.157535	0.375682
128	-0.671060	-0.157535	0.375682
129	-0.588721	-0.084175	0.512749
130	-0.588721	0.084175	0.512749
131	-0.064324	-0.064324	0.779040
132	0.064324	-0.064324	0.779040
133	0.064324	0.064324	0.779040
134	-0.064324	0.064324	0.779040
135	0.428692	-0.659847	0.000000
136	0.000000	-0.712706	0.328468
137	0.659847	0.428692	0.000000
138	0.712706	-0.000000	0.328468
139	-0.428692	0.659847	0.000000
140	-0.000000	0.712706	0.328468
141	-0.659847	-0.428692	0.000000
142	-0.712706	-0.000000	0.328468
143	-0.248760	-0.600972	0.440735
144	-0.331728	-0.507435	0.500468
145	-0.404175	-0.583871	0.337808
146	0.600972	-0.248760	0.440735
147	0.507435	-0.331728	0.500468
148	0.583871	-0.404175	0.337808
149	0.248760	0.600972	0.440735
150	0.331728	0.507435	0.500468
151	0.404175	0.583871	0.337808
152	-0.600972	0.248760	0.440735
153	-0.507435	0.331728	0.500468
154	-0.583871	0.404175	0.337808
155	-0.145979	-0.000000	0.771546
156	-0.233032	0.072226	0.746828
157	-0.233032	-0.072226	0.746828
158	0.162798	-0.726277	0.249261
159	0.157508	-0.759581	0.114840
160	0.311189	-0.708349	0.136532
161	0.404175	-0.583871	0.337808
162	0.331728	-0.507435	0.500468
163	0.248760	-0.600972	0.440735
164	0.081323	-0.419183	0.659941
165	-0.081323	-0.419183	0.659941
166	-0.000000	-0.511989	0.596051
167	0.726277	0.162798	0.249261
168	0.759581	0.157508	0.114840
169	0.708349	0.311189	0.136532
170	0.583871	0.404175	0.337808
171	0.507435	0.331728	0.500468
172	0.600972	0.248760	0.440735
173	0.419183	0.081323	0.659941
174	0.419183	-0.081323	0.659941
175	0.511989	0.000000	0.596051
176	-0.162798	0.726277	0.249261
177	-0.157508	0.759581	0.114840
178	-0.311189	0.708349	0.136532
179	-0.404175	0.583871	0.337808
180	-0.331728	0.507435	0.500468
181	-0.248760	0.600972	0.440735
182	-0.081323	0.419183	0.659941
183	0.081323	0.419183	0.659941
184	0.000000	0.511989	0.596051
185	-0.726277	-0.162798	0.249261
186	-0.759581	-0.157508	0.114840
187	-0.708349	-0.311189	0.136532
188	-0.583871	-0.404175	0.337808
189	-0.507435	-0.331728	0.500468
190	-0.600972	-0.248760	0.440735
191	-0.419183	-0.081323	0.659941
192	-0.419183	0.081323	0.659941
193	-0.511989	-0.000000	0.596051
194	-0.072226	-0.233032	0.746828
195	0.072226	-0.233032	0.746828
196	0.000000	-0.145979	0.771546
197	0.233032	-0.072226	0.746828
198	0.233032	0.072226	0.746828
199	0.145979	-0.000000	0.771546
200	0.072226	0.233032	0.746828
201	-0.072226	0.233032	0.746828
202	-0.000000	0.145979	0.771546
203	-0.311189	-0.708349	0.136532
204	-0.157508	-0.759581	0.114840
205	-0.162798	-0.726277	0.249261
206	0.708349	-0.311189	0.136532
207	0.759581	-0.157508	0.114840
208	0.726277	-0.162798	0.249261
209	0.311189	0.708349	0.136532
210	0.157508	0.759581	0.114840
211	0.162798	0.726277	0.249261
212	-0.708349	0.311189	0.136532
213	-0.759581	0.157508	0.114840
214	-0.726277	0.162798	0.249261
